# Blender v2.79 (sub 0) OBJ File: 'centrifuge_housing2.blend'
# www.blender.org
mtllib centrifuge_housing2.mtl
o Circle.005_Circle.007
v -0.205000 1.050000 -0.355070
v 0.000000 1.050000 -0.410000
v -0.355070 1.050000 -0.205000
v -0.410000 1.050000 0.000000
v -0.355070 1.050000 0.205000
v -0.205000 1.050000 0.355070
v -0.000000 1.050000 0.410000
v 0.205000 1.050000 0.355070
v 0.355070 1.050000 0.205000
v 0.410000 1.050000 0.000000
v 0.355071 1.050000 -0.205000
v 0.205000 1.050000 -0.355070
v -0.250000 1.050000 -0.433013
v 0.000000 1.050000 -0.500000
v -0.433013 1.050000 -0.250000
v -0.500000 1.050000 0.000000
v -0.433013 1.050000 0.250000
v -0.250000 1.050000 0.433013
v -0.000000 1.050000 0.500000
v 0.250000 1.050000 0.433013
v 0.433013 1.050000 0.250000
v 0.500000 1.050000 0.000000
v 0.433013 1.050000 -0.250000
v 0.250000 1.050000 -0.433013
v 0.000000 1.000000 -0.410000
v -0.205000 1.000000 -0.355070
v -0.355070 1.000000 -0.205000
v -0.410000 1.000000 0.000000
v -0.355070 1.000000 0.205000
v -0.205000 1.000000 0.355070
v -0.000000 1.000000 0.410000
v 0.205000 1.000000 0.355070
v 0.355070 1.000000 0.205000
v 0.410000 1.000000 0.000000
v 0.355071 1.000000 -0.205000
v 0.205000 1.000000 -0.355070
v 0.000000 1.000000 -0.500000
v -0.250000 1.000000 -0.433013
v -0.433013 1.000000 -0.250000
v -0.500000 1.000000 0.000000
v -0.433013 1.000000 0.250000
v -0.250000 1.000000 0.433013
v -0.000000 1.000000 0.500000
v 0.250000 1.000000 0.433013
v 0.433013 1.000000 0.250000
v 0.500000 1.000000 0.000000
v 0.433013 1.000000 -0.250000
v 0.250000 1.000000 -0.433013
v -0.205000 0.950000 -0.355070
v 0.000000 0.950000 -0.410000
v -0.355070 0.950000 -0.205000
v -0.410000 0.950000 0.000000
v -0.355070 0.950000 0.205000
v -0.205000 0.950000 0.355070
v -0.000000 0.950000 0.410000
v 0.205000 0.950000 0.355070
v 0.355070 0.950000 0.205000
v 0.410000 0.950000 0.000000
v 0.355071 0.950000 -0.205000
v 0.205000 0.950000 -0.355070
v -0.250000 0.950000 -0.433013
v 0.000000 0.950000 -0.500000
v -0.433013 0.950000 -0.250000
v -0.500000 0.950000 0.000000
v -0.433013 0.950000 0.250000
v -0.250000 0.950000 0.433013
v -0.000000 0.950000 0.500000
v 0.250000 0.950000 0.433013
v 0.433013 0.950000 0.250000
v 0.500000 0.950000 0.000000
v 0.433013 0.950000 -0.250000
v 0.250000 0.950000 -0.433013
vn 0.0000 1.0000 0.0000
vn 0.9659 0.0000 -0.2588
vn -0.9659 0.0000 -0.2588
vn -0.7071 0.0000 -0.7071
vn 0.7071 0.0000 -0.7071
vn 0.2588 0.0000 0.9659
vn -0.9659 0.0000 0.2588
vn 0.2588 0.0000 -0.9659
vn 0.7071 0.0000 0.7071
vn -0.7071 0.0000 0.7071
vn 0.9659 0.0000 0.2588
vn -0.2588 0.0000 0.9659
vn -0.2588 0.0000 -0.9659
vn 0.0000 -1.0000 0.0000
usemtl None
s off
f 13//1 3//1 1//1
f 3//1 16//1 4//1
f 16//1 5//1 4//1
f 17//1 6//1 5//1
f 18//1 7//1 6//1
f 19//1 8//1 7//1
f 20//1 9//1 8//1
f 21//1 10//1 9//1
f 22//1 11//1 10//1
f 11//1 24//1 12//1
f 24//1 2//1 12//1
f 14//1 1//1 2//1
f 47//2 22//2 46//2
f 40//3 15//3 39//3
f 32//4 9//4 33//4
f 48//5 23//5 47//5
f 25//6 1//6 26//6
f 41//7 16//7 40//7
f 33//3 10//3 34//3
f 37//8 24//8 48//8
f 26//9 3//9 27//9
f 42//10 17//10 41//10
f 34//7 11//7 35//7
f 27//11 4//11 28//11
f 43//12 18//12 42//12
f 35//10 12//10 36//10
f 28//2 5//2 29//2
f 44//6 19//6 43//6
f 36//12 2//12 25//12
f 29//5 6//5 30//5
f 45//9 20//9 44//9
f 38//13 14//13 37//13
f 30//8 7//8 31//8
f 46//11 21//11 45//11
f 39//4 13//4 38//4
f 31//13 8//13 32//13
f 38//1 27//1 26//1
f 27//1 40//1 28//1
f 40//1 29//1 28//1
f 41//1 30//1 29//1
f 42//1 31//1 30//1
f 43//1 32//1 31//1
f 44//1 33//1 32//1
f 45//1 34//1 33//1
f 46//1 35//1 34//1
f 35//1 48//1 36//1
f 48//1 25//1 36//1
f 37//1 26//1 25//1
f 51//14 61//14 49//14
f 51//14 64//14 63//14
f 53//14 64//14 52//14
f 53//14 66//14 65//14
f 55//14 66//14 54//14
f 56//14 67//14 55//14
f 57//14 68//14 56//14
f 58//14 69//14 57//14
f 59//14 70//14 58//14
f 60//14 71//14 59//14
f 50//14 72//14 60//14
f 49//14 62//14 50//14
f 70//2 47//2 46//2
f 63//3 40//3 39//3
f 57//4 32//4 33//4
f 71//5 48//5 47//5
f 49//6 25//6 26//6
f 64//7 41//7 40//7
f 58//3 33//3 34//3
f 72//8 37//8 48//8
f 51//9 26//9 27//9
f 65//10 42//10 41//10
f 59//7 34//7 35//7
f 52//11 27//11 28//11
f 66//12 43//12 42//12
f 60//10 35//10 36//10
f 53//2 28//2 29//2
f 67//6 44//6 43//6
f 50//12 36//12 25//12
f 54//5 29//5 30//5
f 68//9 45//9 44//9
f 62//13 38//13 37//13
f 55//8 30//8 31//8
f 69//11 46//11 45//11
f 61//4 39//4 38//4
f 56//13 31//13 32//13
f 13//1 15//1 3//1
f 3//1 15//1 16//1
f 16//1 17//1 5//1
f 17//1 18//1 6//1
f 18//1 19//1 7//1
f 19//1 20//1 8//1
f 20//1 21//1 9//1
f 21//1 22//1 10//1
f 22//1 23//1 11//1
f 11//1 23//1 24//1
f 24//1 14//1 2//1
f 14//1 13//1 1//1
f 47//2 23//2 22//2
f 40//3 16//3 15//3
f 32//4 8//4 9//4
f 48//5 24//5 23//5
f 25//6 2//6 1//6
f 41//7 17//7 16//7
f 33//3 9//3 10//3
f 37//8 14//8 24//8
f 26//9 1//9 3//9
f 42//10 18//10 17//10
f 34//7 10//7 11//7
f 27//11 3//11 4//11
f 43//12 19//12 18//12
f 35//10 11//10 12//10
f 28//2 4//2 5//2
f 44//6 20//6 19//6
f 36//12 12//12 2//12
f 29//5 5//5 6//5
f 45//9 21//9 20//9
f 38//13 13//13 14//13
f 30//8 6//8 7//8
f 46//11 22//11 21//11
f 39//4 15//4 13//4
f 31//13 7//13 8//13
f 38//1 39//1 27//1
f 27//1 39//1 40//1
f 40//1 41//1 29//1
f 41//1 42//1 30//1
f 42//1 43//1 31//1
f 43//1 44//1 32//1
f 44//1 45//1 33//1
f 45//1 46//1 34//1
f 46//1 47//1 35//1
f 35//1 47//1 48//1
f 48//1 37//1 25//1
f 37//1 38//1 26//1
f 51//14 63//14 61//14
f 51//14 52//14 64//14
f 53//14 65//14 64//14
f 53//14 54//14 66//14
f 55//14 67//14 66//14
f 56//14 68//14 67//14
f 57//14 69//14 68//14
f 58//14 70//14 69//14
f 59//14 71//14 70//14
f 60//14 72//14 71//14
f 50//14 62//14 72//14
f 49//14 61//14 62//14
f 70//2 71//2 47//2
f 63//3 64//3 40//3
f 57//4 56//4 32//4
f 71//5 72//5 48//5
f 49//6 50//6 25//6
f 64//7 65//7 41//7
f 58//3 57//3 33//3
f 72//8 62//8 37//8
f 51//9 49//9 26//9
f 65//10 66//10 42//10
f 59//7 58//7 34//7
f 52//11 51//11 27//11
f 66//12 67//12 43//12
f 60//10 59//10 35//10
f 53//2 52//2 28//2
f 67//6 68//6 44//6
f 50//12 60//12 36//12
f 54//5 53//5 29//5
f 68//9 69//9 45//9
f 62//13 61//13 38//13
f 55//8 54//8 30//8
f 69//11 70//11 46//11
f 61//4 63//4 39//4
f 56//13 55//13 31//13
o Cylinder_Cylinder.002
v 0.000000 2.850000 -0.500000
v 0.000000 3.000000 -0.500000
v 0.250000 2.850000 -0.433013
v 0.250000 3.000000 -0.433013
v 0.433013 2.850000 -0.250000
v 0.433013 3.000000 -0.250000
v 0.500000 2.850000 0.000000
v 0.500000 3.000000 0.000000
v 0.433013 2.850000 0.250000
v 0.433013 3.000000 0.250000
v 0.250000 2.850000 0.433013
v 0.250000 3.000000 0.433013
v 0.000000 2.850000 0.500000
v 0.000000 3.000000 0.500000
v -0.250000 2.850000 0.433013
v -0.250000 3.000000 0.433013
v -0.433013 2.850000 0.250000
v -0.433013 3.000000 0.250000
v -0.500000 2.850000 0.000000
v -0.500000 3.000000 0.000000
v -0.433013 2.850000 -0.250000
v -0.433013 3.000000 -0.250000
v -0.250000 2.850000 -0.433013
v -0.250000 3.000000 -0.433013
vn 0.2588 0.0000 -0.9659
vn 0.7071 0.0000 -0.7071
vn 0.9659 0.0000 -0.2588
vn 0.9659 0.0000 0.2588
vn 0.7071 0.0000 0.7071
vn 0.2588 0.0000 0.9659
vn -0.2588 0.0000 0.9659
vn -0.7071 0.0000 0.7071
vn -0.9659 0.0000 0.2588
vn -0.9659 0.0000 -0.2588
vn 0.0000 1.0000 0.0000
vn -0.7071 0.0000 -0.7071
vn -0.2588 0.0000 -0.9659
vn 0.0000 -1.0000 0.0000
usemtl None
s off
f 74//15 75//15 73//15
f 76//16 77//16 75//16
f 78//17 79//17 77//17
f 80//18 81//18 79//18
f 82//19 83//19 81//19
f 84//20 85//20 83//20
f 86//21 87//21 85//21
f 88//22 89//22 87//22
f 90//23 91//23 89//23
f 92//24 93//24 91//24
f 94//25 86//25 78//25
f 94//26 95//26 93//26
f 96//27 73//27 95//27
f 91//28 95//28 79//28
f 74//15 76//15 75//15
f 76//16 78//16 77//16
f 78//17 80//17 79//17
f 80//18 82//18 81//18
f 82//19 84//19 83//19
f 84//20 86//20 85//20
f 86//21 88//21 87//21
f 88//22 90//22 89//22
f 90//23 92//23 91//23
f 92//24 94//24 93//24
f 78//25 76//25 74//25
f 74//25 96//25 94//25
f 94//25 92//25 90//25
f 90//25 88//25 86//25
f 86//25 84//25 82//25
f 82//25 80//25 78//25
f 78//25 74//25 94//25
f 94//25 90//25 86//25
f 86//25 82//25 78//25
f 94//26 96//26 95//26
f 96//27 74//27 73//27
f 95//28 73//28 75//28
f 75//28 77//28 79//28
f 79//28 81//28 83//28
f 83//28 85//28 87//28
f 87//28 89//28 91//28
f 91//28 93//28 95//28
f 95//28 75//28 79//28
f 79//28 83//28 87//28
f 87//28 91//28 79//28
o Circle
v 0.000000 0.350000 -0.500000
v -0.250000 0.350000 -0.433013
v -0.433013 0.350000 -0.250000
v -0.500000 0.350000 0.000000
v -0.433013 0.350000 0.250000
v -0.250000 0.350000 0.433013
v -0.000000 0.350000 0.500000
v 0.250000 0.350000 0.433013
v 0.433013 0.350000 0.250000
v 0.500000 0.350000 0.000000
v 0.433013 0.350000 -0.250000
v 0.250000 0.350000 -0.433013
v 0.000000 0.350000 -0.500000
v -0.250000 0.350000 -0.433013
v -0.433013 0.350000 -0.250000
v -0.500000 0.350000 0.000000
v -0.433013 0.350000 0.250000
v -0.250000 0.350000 0.433013
v -0.000000 0.350000 0.500000
v 0.250000 0.350000 0.433013
v 0.433013 0.350000 0.250000
v 0.500000 0.350000 0.000000
v 0.433013 0.350000 -0.250000
v 0.250000 0.350000 -0.433013
v -0.500000 0.000000 0.500000
v 0.500000 0.000000 0.500000
v -0.500000 0.000000 -0.500000
v 0.500000 0.000000 -0.500000
v -0.250000 0.350000 -0.433013
v 0.000000 0.350000 -0.500000
v -0.433013 0.350000 -0.250000
v -0.500000 0.350000 0.000000
v -0.433013 0.350000 0.250000
v -0.250000 0.350000 0.433013
v -0.000000 0.350000 0.500000
v 0.250000 0.350000 0.433013
v 0.433013 0.350000 0.250000
v 0.500000 0.350000 0.000000
v 0.433013 0.350000 -0.250000
v 0.250000 0.350000 -0.433013
v -0.198383 0.350000 -0.343610
v -0.000000 0.350000 -0.396766
v -0.343610 0.350000 -0.198383
v -0.396766 0.350000 0.000000
v -0.343610 0.350000 0.198383
v -0.198383 0.350000 0.343610
v -0.000000 0.350000 0.396766
v 0.198383 0.350000 0.343610
v 0.343610 0.350000 0.198383
v 0.396766 0.350000 0.000000
v 0.343610 0.350000 -0.198383
v 0.198383 0.350000 -0.343610
v -0.145128 0.300000 -0.251368
v -0.251369 0.300000 -0.145128
v -0.290255 0.300000 0.000000
v -0.251369 0.300000 0.145128
v -0.145128 0.300000 0.251369
v -0.000000 0.300000 0.290255
v 0.145128 0.300000 0.251369
v 0.251368 0.300000 0.145128
v 0.290255 0.300000 0.000000
v 0.251369 0.300000 -0.145128
v 0.145128 0.300000 -0.251368
v -0.198383 0.300000 -0.343610
v -0.000000 0.300000 -0.290255
v -0.000000 0.300000 -0.396766
v -0.343610 0.300000 -0.198383
v -0.396766 0.300000 0.000000
v -0.343610 0.300000 0.198383
v -0.198383 0.300000 0.343610
v -0.000000 0.300000 0.396766
v 0.198383 0.300000 0.343610
v 0.343610 0.300000 0.198383
v 0.396766 0.300000 0.000000
v 0.343610 0.300000 -0.198383
v 0.198383 0.300000 -0.343610
v -0.090234 0.250000 -0.156289
v -0.000000 0.250000 -0.180467
v -0.156289 0.250000 -0.090234
v -0.180467 0.250000 0.000000
v -0.156289 0.250000 0.090234
v -0.090234 0.250000 0.156289
v -0.000000 0.250000 0.180467
v 0.090234 0.250000 0.156289
v 0.156289 0.250000 0.090234
v 0.180467 0.250000 0.000000
v 0.156289 0.250000 -0.090234
v 0.090234 0.250000 -0.156289
v -0.145128 0.250000 -0.251368
v -0.251369 0.250000 -0.145128
v -0.290255 0.250000 0.000000
v -0.251369 0.250000 0.145128
v -0.145128 0.250000 0.251369
v -0.000000 0.250000 0.290255
v 0.145128 0.250000 0.251369
v 0.251368 0.250000 0.145128
v 0.290255 0.250000 0.000000
v 0.251369 0.250000 -0.145128
v 0.145128 0.250000 -0.251368
v -0.000000 0.250000 -0.290255
vn 0.0000 0.0000 1.0000
vn -0.5955 0.5393 -0.5955
vn 0.0000 -1.0000 0.0000
vn -0.9060 0.3468 -0.2428
vn -0.9060 0.3468 0.2428
vn -0.5955 0.5393 0.5955
vn -0.2428 0.3468 0.9060
vn 0.2428 0.3468 0.9060
vn 0.5955 0.5393 0.5955
vn 0.9060 0.3468 0.2428
vn 0.9060 0.3468 -0.2428
vn 0.5955 0.5393 -0.5955
vn 0.2428 0.3468 -0.9060
vn -0.2428 0.3468 -0.9060
vn -1.0000 0.0000 0.0000
vn 1.0000 0.0000 0.0000
vn 0.0000 0.0000 -1.0000
vn 0.0000 1.0000 -0.0000
vn 0.2588 0.0000 -0.9659
vn 0.2588 0.0000 0.9659
vn -0.7071 0.0000 -0.7071
vn 0.9659 0.0000 0.2588
vn -0.9659 0.0000 0.2588
vn 0.7071 0.0000 -0.7071
vn -0.2588 0.0000 0.9659
vn -0.2588 0.0000 -0.9659
vn 0.7071 0.0000 0.7071
vn -0.9659 0.0000 -0.2588
vn 0.9659 0.0000 -0.2588
vn -0.7071 0.0000 0.7071
usemtl None
s off
f 100//29 111//29 112//29
f 107//29 118//29 119//29
f 104//29 115//29 116//29
f 101//29 112//29 113//29
f 108//29 119//29 120//29
f 98//29 109//29 110//29
f 105//29 116//29 117//29
f 102//29 113//29 114//29
f 97//29 120//29 109//29
f 99//29 110//29 111//29
f 106//29 117//29 118//29
f 103//29 114//29 115//29
f 110//30 123//30 111//30
f 123//31 122//31 121//31
f 111//32 123//32 112//32
f 112//33 121//33 113//33
f 113//34 121//34 114//34
f 114//35 121//35 115//35
f 115//36 122//36 116//36
f 116//37 122//37 117//37
f 117//38 122//38 118//38
f 118//39 124//39 119//39
f 119//40 124//40 120//40
f 120//41 124//41 109//41
f 109//42 123//42 110//42
f 112//43 123//43 121//43
f 115//29 121//29 122//29
f 118//44 122//44 124//44
f 109//45 124//45 123//45
f 109//29 125//29 126//29
f 116//29 133//29 132//29
f 113//29 130//29 129//29
f 120//29 126//29 136//29
f 110//29 127//29 125//29
f 117//29 134//29 133//29
f 114//29 131//29 130//29
f 111//29 128//29 127//29
f 118//29 135//29 134//29
f 115//29 132//29 131//29
f 112//29 129//29 128//29
f 119//29 136//29 135//29
f 138//46 125//46 137//46
f 137//46 127//46 139//46
f 140//46 127//46 128//46
f 140//46 129//46 141//46
f 141//46 130//46 142//46
f 142//46 131//46 143//46
f 143//46 132//46 144//46
f 144//46 133//46 145//46
f 146//46 133//46 134//46
f 146//46 135//46 147//46
f 147//46 136//46 148//46
f 148//46 126//46 138//46
f 143//47 166//47 142//47
f 137//48 162//48 138//48
f 145//49 168//49 144//49
f 140//50 163//50 139//50
f 147//51 170//51 146//51
f 142//52 165//52 141//52
f 138//53 172//53 148//53
f 144//54 167//54 143//54
f 139//55 160//55 137//55
f 146//56 169//56 145//56
f 141//57 164//57 140//57
f 148//58 171//58 147//58
f 157//56 192//56 156//56
f 159//46 162//46 161//46
f 152//57 187//57 151//57
f 158//46 172//46 159//46
f 159//58 194//58 158//58
f 157//46 171//46 158//46
f 154//47 189//47 153//47
f 157//46 169//46 170//46
f 149//48 196//48 161//48
f 156//46 168//46 169//46
f 156//49 191//49 155//49
f 154//46 168//46 155//46
f 151//50 186//50 150//50
f 153//46 167//46 154//46
f 158//51 193//51 157//51
f 152//46 166//46 153//46
f 153//52 188//52 152//52
f 151//46 165//46 152//46
f 161//53 195//53 159//53
f 151//46 163//46 164//46
f 155//54 190//54 154//54
f 149//46 163//46 150//46
f 150//55 185//55 149//55
f 161//46 160//46 149//46
f 177//46 181//46 174//46
f 184//46 196//46 174//46
f 183//46 195//46 184//46
f 182//46 194//46 183//46
f 181//46 193//46 182//46
f 181//46 191//46 192//46
f 179//46 191//46 180//46
f 178//46 190//46 179//46
f 177//46 189//46 178//46
f 176//46 188//46 177//46
f 176//46 186//46 187//46
f 175//46 185//46 186//46
f 174//46 185//46 173//46
f 100//29 99//29 111//29
f 107//29 106//29 118//29
f 104//29 103//29 115//29
f 101//29 100//29 112//29
f 108//29 107//29 119//29
f 98//29 97//29 109//29
f 105//29 104//29 116//29
f 102//29 101//29 113//29
f 97//29 108//29 120//29
f 99//29 98//29 110//29
f 106//29 105//29 117//29
f 103//29 102//29 114//29
f 123//31 124//31 122//31
f 109//29 110//29 125//29
f 116//29 117//29 133//29
f 113//29 114//29 130//29
f 120//29 109//29 126//29
f 110//29 111//29 127//29
f 117//29 118//29 134//29
f 114//29 115//29 131//29
f 111//29 112//29 128//29
f 118//29 119//29 135//29
f 115//29 116//29 132//29
f 112//29 113//29 129//29
f 119//29 120//29 136//29
f 138//46 126//46 125//46
f 137//46 125//46 127//46
f 140//46 139//46 127//46
f 140//46 128//46 129//46
f 141//46 129//46 130//46
f 142//46 130//46 131//46
f 143//46 131//46 132//46
f 144//46 132//46 133//46
f 146//46 145//46 133//46
f 146//46 134//46 135//46
f 147//46 135//46 136//46
f 148//46 136//46 126//46
f 143//47 167//47 166//47
f 137//48 160//48 162//48
f 145//49 169//49 168//49
f 140//50 164//50 163//50
f 147//51 171//51 170//51
f 142//52 166//52 165//52
f 138//53 162//53 172//53
f 144//54 168//54 167//54
f 139//55 163//55 160//55
f 146//56 170//56 169//56
f 141//57 165//57 164//57
f 148//58 172//58 171//58
f 157//56 193//56 192//56
f 159//46 172//46 162//46
f 152//57 188//57 187//57
f 158//46 171//46 172//46
f 159//58 195//58 194//58
f 157//46 170//46 171//46
f 154//47 190//47 189//47
f 157//46 156//46 169//46
f 149//48 185//48 196//48
f 156//46 155//46 168//46
f 156//49 192//49 191//49
f 154//46 167//46 168//46
f 151//50 187//50 186//50
f 153//46 166//46 167//46
f 158//51 194//51 193//51
f 152//46 165//46 166//46
f 153//52 189//52 188//52
f 151//46 164//46 165//46
f 161//53 196//53 195//53
f 151//46 150//46 163//46
f 155//54 191//54 190//54
f 149//46 160//46 163//46
f 150//55 186//55 185//55
f 161//46 162//46 160//46
f 174//46 173//46 177//46
f 173//46 175//46 177//46
f 175//46 176//46 177//46
f 177//46 178//46 179//46
f 179//46 180//46 177//46
f 180//46 181//46 177//46
f 181//46 182//46 183//46
f 183//46 184//46 181//46
f 184//46 174//46 181//46
f 184//46 195//46 196//46
f 183//46 194//46 195//46
f 182//46 193//46 194//46
f 181//46 192//46 193//46
f 181//46 180//46 191//46
f 179//46 190//46 191//46
f 178//46 189//46 190//46
f 177//46 188//46 189//46
f 176//46 187//46 188//46
f 176//46 175//46 186//46
f 175//46 173//46 185//46
f 174//46 196//46 185//46
o Circle.003_Circle.002
v -0.116469 2.750000 -0.434667
v -0.318198 2.750000 -0.318198
v -0.434667 2.750000 -0.116469
v -0.434667 2.750000 0.116469
v -0.318198 2.750000 0.318198
v -0.116469 2.750000 0.434667
v 0.116468 2.750000 0.434667
v 0.318198 2.750000 0.318198
v 0.434667 2.750000 0.116469
v 0.434667 2.750000 -0.116468
v 0.318198 2.750000 -0.318198
v 0.116469 2.750000 -0.434667
v -0.093175 2.750000 -0.347733
v -0.254558 2.750000 -0.254558
v -0.347733 2.750000 -0.093175
v -0.347733 2.750000 0.093175
v -0.254558 2.750000 0.254558
v -0.093175 2.750000 0.347733
v 0.093175 2.750000 0.347733
v 0.254558 2.750000 0.254559
v 0.347733 2.750000 0.093175
v 0.347733 2.750000 -0.093175
v 0.254559 2.750000 -0.254558
v 0.093175 2.750000 -0.347733
v -0.318198 2.850000 -0.318198
v -0.116469 2.850000 -0.434667
v -0.434667 2.850000 -0.116469
v -0.434667 2.850000 0.116469
v -0.318198 2.850000 0.318198
v -0.116469 2.850000 0.434667
v 0.116468 2.850000 0.434667
v 0.318198 2.850000 0.318198
v 0.434667 2.850000 0.116469
v 0.434667 2.850000 -0.116468
v 0.318198 2.850000 -0.318198
v 0.116469 2.850000 -0.434667
v -0.254558 2.850000 -0.254558
v -0.093175 2.850000 -0.347733
v -0.347733 2.850000 -0.093175
v -0.347733 2.850000 0.093175
v -0.254558 2.850000 0.254558
v -0.093175 2.850000 0.347733
v 0.093175 2.850000 0.347733
v 0.254558 2.850000 0.254559
v 0.347733 2.850000 0.093175
v 0.347733 2.850000 -0.093175
v 0.254559 2.850000 -0.254558
v 0.093175 2.850000 -0.347733
vn 0.0000 -1.0000 0.0000
vn 0.0000 1.0000 0.0000
vn -0.8660 0.0000 0.5000
vn 1.0000 0.0000 -0.0000
vn 0.8660 0.0000 0.5000
vn -0.5000 0.0000 0.8660
vn -0.5000 0.0000 -0.8660
vn 0.8660 0.0000 -0.5000
vn 0.0000 0.0000 1.0000
vn -0.8660 0.0000 -0.5000
vn 0.5000 0.0000 -0.8660
vn -1.0000 0.0000 0.0000
vn 0.0000 0.0000 -1.0000
vn 0.5000 0.0000 0.8660
usemtl None
s off
f 210//59 199//59 198//59
f 211//59 200//59 199//59
f 212//59 201//59 200//59
f 213//59 202//59 201//59
f 202//59 215//59 203//59
f 215//59 204//59 203//59
f 204//59 217//59 205//59
f 217//59 206//59 205//59
f 218//59 207//59 206//59
f 207//59 220//59 208//59
f 220//59 197//59 208//59
f 209//59 198//59 197//59
f 223//60 233//60 221//60
f 224//60 235//60 223//60
f 225//60 236//60 224//60
f 226//60 237//60 225//60
f 226//60 239//60 238//60
f 228//60 239//60 227//60
f 229//60 240//60 228//60
f 230//60 241//60 229//60
f 231//60 242//60 230//60
f 231//60 244//60 243//60
f 222//60 244//60 232//60
f 221//60 234//60 222//60
f 242//61 219//61 218//61
f 235//62 212//62 211//62
f 229//63 204//63 205//63
f 243//64 220//64 219//64
f 221//65 197//65 198//65
f 236//66 213//66 212//66
f 230//62 205//62 206//62
f 244//67 209//67 220//67
f 223//68 198//68 199//68
f 237//69 214//69 213//69
f 231//66 206//66 207//66
f 224//70 199//70 200//70
f 238//71 215//71 214//71
f 232//69 207//69 208//69
f 225//61 200//61 201//61
f 239//65 216//65 215//65
f 222//71 208//71 197//71
f 226//64 201//64 202//64
f 240//68 217//68 216//68
f 234//72 210//72 209//72
f 227//67 202//67 203//67
f 241//70 218//70 217//70
f 233//63 211//63 210//63
f 228//72 203//72 204//72
f 210//59 211//59 199//59
f 211//59 212//59 200//59
f 212//59 213//59 201//59
f 213//59 214//59 202//59
f 202//59 214//59 215//59
f 215//59 216//59 204//59
f 204//59 216//59 217//59
f 217//59 218//59 206//59
f 218//59 219//59 207//59
f 207//59 219//59 220//59
f 220//59 209//59 197//59
f 209//59 210//59 198//59
f 223//60 235//60 233//60
f 224//60 236//60 235//60
f 225//60 237//60 236//60
f 226//60 238//60 237//60
f 226//60 227//60 239//60
f 228//60 240//60 239//60
f 229//60 241//60 240//60
f 230//60 242//60 241//60
f 231//60 243//60 242//60
f 231//60 232//60 244//60
f 222//60 234//60 244//60
f 221//60 233//60 234//60
f 242//61 243//61 219//61
f 235//62 236//62 212//62
f 229//63 228//63 204//63
f 243//64 244//64 220//64
f 221//65 222//65 197//65
f 236//66 237//66 213//66
f 230//62 229//62 205//62
f 244//67 234//67 209//67
f 223//68 221//68 198//68
f 237//69 238//69 214//69
f 231//66 230//66 206//66
f 224//70 223//70 199//70
f 238//71 239//71 215//71
f 232//69 231//69 207//69
f 225//61 224//61 200//61
f 239//65 240//65 216//65
f 222//71 232//71 208//71
f 226//64 225//64 201//64
f 240//68 241//68 217//68
f 234//72 233//72 210//72
f 227//67 226//67 202//67
f 241//70 242//70 218//70
f 233//63 235//63 211//63
f 228//72 227//72 203//72
o Circle.004
v 0.000000 2.650000 -0.400000
v -0.200000 2.650000 -0.346410
v -0.346410 2.650000 -0.200000
v -0.400000 2.650000 0.000000
v -0.346410 2.650000 0.200000
v -0.200000 2.650000 0.346410
v -0.000000 2.650000 0.400000
v 0.200000 2.650000 0.346410
v 0.346410 2.650000 0.200000
v 0.400000 2.650000 0.000000
v 0.346410 2.650000 -0.200000
v 0.200000 2.650000 -0.346410
v 0.000000 2.650000 -0.320000
v -0.160000 2.650000 -0.277128
v -0.277128 2.650000 -0.160000
v -0.320000 2.650000 0.000000
v -0.277128 2.650000 0.160000
v -0.160000 2.650000 0.277128
v -0.000000 2.650000 0.320000
v 0.160000 2.650000 0.277128
v 0.277128 2.650000 0.160000
v 0.320000 2.650000 0.000000
v 0.277128 2.650000 -0.160000
v 0.160000 2.650000 -0.277128
v -0.200000 2.750000 -0.346410
v 0.000000 2.750000 -0.400000
v -0.346410 2.750000 -0.200000
v -0.400000 2.750000 0.000000
v -0.346410 2.750000 0.200000
v -0.200000 2.750000 0.346410
v -0.000000 2.750000 0.400000
v 0.200000 2.750000 0.346410
v 0.346410 2.750000 0.200000
v 0.400000 2.750000 0.000000
v 0.346410 2.750000 -0.200000
v 0.200000 2.750000 -0.346410
v -0.160000 2.750000 -0.277128
v 0.000000 2.750000 -0.320000
v -0.277128 2.750000 -0.160000
v -0.320000 2.750000 0.000000
v -0.277128 2.750000 0.160000
v -0.160000 2.750000 0.277128
v -0.000000 2.750000 0.320000
v 0.160000 2.750000 0.277128
v 0.277128 2.750000 0.160000
v 0.320000 2.750000 0.000000
v 0.277128 2.750000 -0.160000
v 0.160000 2.750000 -0.277128
vn 0.0000 -1.0000 0.0000
vn 0.0000 1.0000 0.0000
vn -0.9659 0.0000 0.2588
vn 0.9659 0.0000 0.2588
vn 0.7071 0.0000 0.7071
vn -0.7071 0.0000 0.7071
vn -0.2588 0.0000 -0.9659
vn 0.9659 0.0000 -0.2588
vn -0.2588 0.0000 0.9659
vn -0.7071 0.0000 -0.7071
vn 0.7071 0.0000 -0.7071
vn -0.9659 0.0000 -0.2588
vn 0.2588 0.0000 -0.9659
vn 0.2588 0.0000 0.9659
usemtl None
s off
f 258//73 247//73 246//73
f 259//73 248//73 247//73
f 260//73 249//73 248//73
f 261//73 250//73 249//73
f 250//73 263//73 251//73
f 263//73 252//73 251//73
f 252//73 265//73 253//73
f 265//73 254//73 253//73
f 266//73 255//73 254//73
f 255//73 268//73 256//73
f 268//73 245//73 256//73
f 257//73 246//73 245//73
f 271//74 281//74 269//74
f 272//74 283//74 271//74
f 273//74 284//74 272//74
f 274//74 285//74 273//74
f 274//74 287//74 286//74
f 276//74 287//74 275//74
f 277//74 288//74 276//74
f 278//74 289//74 277//74
f 279//74 290//74 278//74
f 279//74 292//74 291//74
f 270//74 292//74 280//74
f 269//74 282//74 270//74
f 290//75 267//75 266//75
f 283//76 260//76 259//76
f 277//77 252//77 253//77
f 291//78 268//78 267//78
f 269//79 245//79 246//79
f 284//80 261//80 260//80
f 278//76 253//76 254//76
f 292//81 257//81 268//81
f 271//82 246//82 247//82
f 285//83 262//83 261//83
f 279//80 254//80 255//80
f 272//84 247//84 248//84
f 286//85 263//85 262//85
f 280//83 255//83 256//83
f 273//75 248//75 249//75
f 287//79 264//79 263//79
f 270//85 256//85 245//85
f 274//78 249//78 250//78
f 288//82 265//82 264//82
f 282//86 258//86 257//86
f 275//81 250//81 251//81
f 289//84 266//84 265//84
f 281//77 259//77 258//77
f 276//86 251//86 252//86
f 258//73 259//73 247//73
f 259//73 260//73 248//73
f 260//73 261//73 249//73
f 261//73 262//73 250//73
f 250//73 262//73 263//73
f 263//73 264//73 252//73
f 252//73 264//73 265//73
f 265//73 266//73 254//73
f 266//73 267//73 255//73
f 255//73 267//73 268//73
f 268//73 257//73 245//73
f 257//73 258//73 246//73
f 271//74 283//74 281//74
f 272//74 284//74 283//74
f 273//74 285//74 284//74
f 274//74 286//74 285//74
f 274//74 275//74 287//74
f 276//74 288//74 287//74
f 277//74 289//74 288//74
f 278//74 290//74 289//74
f 279//74 291//74 290//74
f 279//74 280//74 292//74
f 270//74 282//74 292//74
f 269//74 281//74 282//74
f 290//75 291//75 267//75
f 283//76 284//76 260//76
f 277//77 276//77 252//77
f 291//78 292//78 268//78
f 269//79 270//79 245//79
f 284//80 285//80 261//80
f 278//76 277//76 253//76
f 292//81 282//81 257//81
f 271//82 269//82 246//82
f 285//83 286//83 262//83
f 279//80 278//80 254//80
f 272//84 271//84 247//84
f 286//85 287//85 263//85
f 280//83 279//83 255//83
f 273//75 272//75 248//75
f 287//79 288//79 264//79
f 270//85 280//85 256//85
f 274//78 273//78 249//78
f 288//82 289//82 265//82
f 282//86 281//86 258//86
f 275//81 274//81 250//81
f 289//84 290//84 266//84
f 281//77 283//77 259//77
f 276//86 275//86 251//86
o Circle.001_Circle.008
v -0.205000 1.850000 -0.355070
v 0.000000 1.850000 -0.410000
v -0.355070 1.850000 -0.205000
v -0.410000 1.850000 0.000000
v -0.355070 1.850000 0.205000
v -0.205000 1.850000 0.355070
v -0.000000 1.850000 0.410000
v 0.205000 1.850000 0.355070
v 0.355070 1.850000 0.205000
v 0.410000 1.850000 0.000000
v 0.355071 1.850000 -0.205000
v 0.205000 1.850000 -0.355070
v -0.250000 1.850000 -0.433013
v 0.000000 1.850000 -0.500000
v -0.433013 1.850000 -0.250000
v -0.500000 1.850000 0.000000
v -0.433013 1.850000 0.250000
v -0.250000 1.850000 0.433013
v -0.000000 1.850000 0.500000
v 0.250000 1.850000 0.433013
v 0.433013 1.850000 0.250000
v 0.500000 1.850000 0.000000
v 0.433013 1.850000 -0.250000
v 0.250000 1.850000 -0.433013
v 0.000000 1.800000 -0.410000
v -0.205000 1.800000 -0.355070
v -0.355070 1.800000 -0.205000
v -0.410000 1.800000 0.000000
v -0.355070 1.800000 0.205000
v -0.205000 1.800000 0.355070
v -0.000000 1.800000 0.410000
v 0.205000 1.800000 0.355070
v 0.355070 1.800000 0.205000
v 0.410000 1.800000 0.000000
v 0.355071 1.800000 -0.205000
v 0.205000 1.800000 -0.355070
v 0.000000 1.800000 -0.500000
v -0.250000 1.800000 -0.433013
v -0.433013 1.800000 -0.250000
v -0.500000 1.800000 0.000000
v -0.433013 1.800000 0.250000
v -0.250000 1.800000 0.433013
v -0.000000 1.800000 0.500000
v 0.250000 1.800000 0.433013
v 0.433013 1.800000 0.250000
v 0.500000 1.800000 0.000000
v 0.433013 1.800000 -0.250000
v 0.250000 1.800000 -0.433013
v -0.205000 1.750000 -0.355070
v 0.000000 1.750000 -0.410000
v -0.355070 1.750000 -0.205000
v -0.410000 1.750000 0.000000
v -0.355070 1.750000 0.205000
v -0.205000 1.750000 0.355070
v -0.000000 1.750000 0.410000
v 0.205000 1.750000 0.355070
v 0.355070 1.750000 0.205000
v 0.410000 1.750000 0.000000
v 0.355071 1.750000 -0.205000
v 0.205000 1.750000 -0.355070
v -0.250000 1.750000 -0.433013
v 0.000000 1.750000 -0.500000
v -0.433013 1.750000 -0.250000
v -0.500000 1.750000 0.000000
v -0.433013 1.750000 0.250000
v -0.250000 1.750000 0.433013
v -0.000000 1.750000 0.500000
v 0.250000 1.750000 0.433013
v 0.433013 1.750000 0.250000
v 0.500000 1.750000 0.000000
v 0.433013 1.750000 -0.250000
v 0.250000 1.750000 -0.433013
vn 0.0000 1.0000 0.0000
vn 0.9659 0.0000 -0.2588
vn -0.9659 0.0000 -0.2588
vn -0.7071 0.0000 -0.7071
vn 0.7071 0.0000 -0.7071
vn 0.2588 0.0000 0.9659
vn -0.9659 0.0000 0.2588
vn 0.2588 0.0000 -0.9659
vn 0.7071 0.0000 0.7071
vn -0.7071 0.0000 0.7071
vn 0.9659 0.0000 0.2588
vn -0.2588 0.0000 0.9659
vn -0.2588 0.0000 -0.9659
vn 0.0000 -1.0000 0.0000
usemtl None
s off
f 305//87 295//87 293//87
f 295//87 308//87 296//87
f 308//87 297//87 296//87
f 309//87 298//87 297//87
f 310//87 299//87 298//87
f 311//87 300//87 299//87
f 312//87 301//87 300//87
f 313//87 302//87 301//87
f 314//87 303//87 302//87
f 303//87 316//87 304//87
f 316//87 294//87 304//87
f 306//87 293//87 294//87
f 339//88 314//88 338//88
f 332//89 307//89 331//89
f 324//90 301//90 325//90
f 340//91 315//91 339//91
f 317//92 293//92 318//92
f 333//93 308//93 332//93
f 325//89 302//89 326//89
f 329//94 316//94 340//94
f 318//95 295//95 319//95
f 334//96 309//96 333//96
f 326//93 303//93 327//93
f 319//97 296//97 320//97
f 335//98 310//98 334//98
f 327//96 304//96 328//96
f 320//88 297//88 321//88
f 336//92 311//92 335//92
f 328//98 294//98 317//98
f 321//91 298//91 322//91
f 337//95 312//95 336//95
f 330//99 306//99 329//99
f 322//94 299//94 323//94
f 338//97 313//97 337//97
f 331//90 305//90 330//90
f 323//99 300//99 324//99
f 330//87 319//87 318//87
f 319//87 332//87 320//87
f 332//87 321//87 320//87
f 333//87 322//87 321//87
f 334//87 323//87 322//87
f 335//87 324//87 323//87
f 336//87 325//87 324//87
f 337//87 326//87 325//87
f 338//87 327//87 326//87
f 327//87 340//87 328//87
f 340//87 317//87 328//87
f 329//87 318//87 317//87
f 343//100 353//100 341//100
f 343//100 356//100 355//100
f 345//100 356//100 344//100
f 345//100 358//100 357//100
f 347//100 358//100 346//100
f 348//100 359//100 347//100
f 349//100 360//100 348//100
f 350//100 361//100 349//100
f 351//100 362//100 350//100
f 352//100 363//100 351//100
f 342//100 364//100 352//100
f 341//100 354//100 342//100
f 362//88 339//88 338//88
f 355//89 332//89 331//89
f 349//90 324//90 325//90
f 363//91 340//91 339//91
f 341//92 317//92 318//92
f 356//93 333//93 332//93
f 350//89 325//89 326//89
f 364//94 329//94 340//94
f 343//95 318//95 319//95
f 357//96 334//96 333//96
f 351//93 326//93 327//93
f 344//97 319//97 320//97
f 358//98 335//98 334//98
f 352//96 327//96 328//96
f 345//88 320//88 321//88
f 359//92 336//92 335//92
f 342//98 328//98 317//98
f 346//91 321//91 322//91
f 360//95 337//95 336//95
f 354//99 330//99 329//99
f 347//94 322//94 323//94
f 361//97 338//97 337//97
f 353//90 331//90 330//90
f 348//99 323//99 324//99
f 305//87 307//87 295//87
f 295//87 307//87 308//87
f 308//87 309//87 297//87
f 309//87 310//87 298//87
f 310//87 311//87 299//87
f 311//87 312//87 300//87
f 312//87 313//87 301//87
f 313//87 314//87 302//87
f 314//87 315//87 303//87
f 303//87 315//87 316//87
f 316//87 306//87 294//87
f 306//87 305//87 293//87
f 339//88 315//88 314//88
f 332//89 308//89 307//89
f 324//90 300//90 301//90
f 340//91 316//91 315//91
f 317//92 294//92 293//92
f 333//93 309//93 308//93
f 325//89 301//89 302//89
f 329//94 306//94 316//94
f 318//95 293//95 295//95
f 334//96 310//96 309//96
f 326//93 302//93 303//93
f 319//97 295//97 296//97
f 335//98 311//98 310//98
f 327//96 303//96 304//96
f 320//88 296//88 297//88
f 336//92 312//92 311//92
f 328//98 304//98 294//98
f 321//91 297//91 298//91
f 337//95 313//95 312//95
f 330//99 305//99 306//99
f 322//94 298//94 299//94
f 338//97 314//97 313//97
f 331//90 307//90 305//90
f 323//99 299//99 300//99
f 330//87 331//87 319//87
f 319//87 331//87 332//87
f 332//87 333//87 321//87
f 333//87 334//87 322//87
f 334//87 335//87 323//87
f 335//87 336//87 324//87
f 336//87 337//87 325//87
f 337//87 338//87 326//87
f 338//87 339//87 327//87
f 327//87 339//87 340//87
f 340//87 329//87 317//87
f 329//87 330//87 318//87
f 343//100 355//100 353//100
f 343//100 344//100 356//100
f 345//100 357//100 356//100
f 345//100 346//100 358//100
f 347//100 359//100 358//100
f 348//100 360//100 359//100
f 349//100 361//100 360//100
f 350//100 362//100 361//100
f 351//100 363//100 362//100
f 352//100 364//100 363//100
f 342//100 354//100 364//100
f 341//100 353//100 354//100
f 362//88 363//88 339//88
f 355//89 356//89 332//89
f 349//90 348//90 324//90
f 363//91 364//91 340//91
f 341//92 342//92 317//92
f 356//93 357//93 333//93
f 350//89 349//89 325//89
f 364//94 354//94 329//94
f 343//95 341//95 318//95
f 357//96 358//96 334//96
f 351//93 350//93 326//93
f 344//97 343//97 319//97
f 358//98 359//98 335//98
f 352//96 351//96 327//96
f 345//88 344//88 320//88
f 359//92 360//92 336//92
f 342//98 352//98 328//98
f 346//91 345//91 321//91
f 360//95 361//95 337//95
f 354//99 353//99 330//99
f 347//94 346//94 322//94
f 361//97 362//97 338//97
f 353//90 355//90 331//90
f 348//99 347//99 323//99
