{
  "parent": "block/cube_all",
  "textures": {
    "particle": "explosivesplus:blocks/creeper_top",
    "down": "explosivesplus:blocks/dirt",
    "up": "explosivesplus:blocks/creeper_top",
    "north": "explosivesplus:blocks/creeper_side",
    "east": "explosivesplus:blocks/creeper_side",
    "south": "explosivesplus:blocks/creeper_side",
    "west": "explosivesplus:blocks/creeper_side"
  }
}
