# Blender v2.79 (sub 0) OBJ File: 'fuselage.blend'
# www.blender.org
mtllib fuselage_normal.mtl
o Cylinder.002
v -0.111201 13.179999 -0.559048
v -0.111201 15.040000 -0.559048
v -0.000000 13.179999 -0.570000
v -0.000000 15.040000 -0.570000
v 0.111201 13.179999 -0.559048
v 0.111201 15.040000 -0.559048
v 0.218130 13.179999 -0.526611
v 0.218130 15.040000 -0.526611
v 0.316675 13.179999 -0.473938
v 0.316675 15.040000 -0.473938
v 0.403051 13.179999 -0.403051
v 0.403051 15.040000 -0.403051
v 0.473938 13.179999 -0.316675
v 0.473938 15.040000 -0.316675
v 0.526611 13.179999 -0.218130
v 0.526611 15.040000 -0.218130
v 0.559048 13.179999 -0.111202
v 0.559048 15.040000 -0.111202
v 0.570000 13.179999 -0.000000
v 0.570000 15.040000 -0.000000
v 0.559048 13.179999 0.111201
v 0.559048 15.040000 0.111201
v 0.526611 13.179999 0.218130
v 0.526611 15.040000 0.218130
v 0.473938 13.179999 0.316675
v 0.473938 15.040000 0.316675
v 0.403051 13.179999 0.403051
v 0.403051 15.040000 0.403051
v 0.316675 13.179999 0.473938
v 0.316675 15.040000 0.473938
v 0.218129 13.179999 0.526611
v 0.218129 15.040000 0.526611
v 0.111201 13.179999 0.559048
v 0.111201 15.040000 0.559048
v -0.000000 13.179999 0.570000
v -0.000000 15.040000 0.570000
v -0.111202 13.179999 0.559048
v -0.111202 15.040000 0.559048
v -0.218130 13.179999 0.526611
v -0.218130 15.040000 0.526611
v -0.316675 13.179999 0.473937
v -0.316675 15.040000 0.473937
v -0.403051 13.179999 0.403051
v -0.403051 15.040000 0.403051
v -0.473938 13.179999 0.316675
v -0.473938 15.040000 0.316675
v -0.526612 13.179999 0.218129
v -0.526612 15.040000 0.218129
v -0.559048 13.179999 0.111201
v -0.559048 15.040000 0.111201
v -0.570000 13.179999 -0.000001
v -0.570000 15.040000 -0.000001
v -0.559047 13.179999 -0.111202
v -0.559047 15.040000 -0.111202
v -0.526611 13.179999 -0.218130
v -0.526611 15.040000 -0.218130
v -0.473937 13.179999 -0.316676
v -0.473937 15.040000 -0.316676
v -0.403050 13.179999 -0.403051
v -0.403050 15.040000 -0.403051
v -0.316674 13.179999 -0.473938
v -0.316674 15.040000 -0.473938
v -0.218129 13.179999 -0.526612
v -0.218129 15.040000 -0.526612
vt 0.937382 0.520176
vt 0.906140 0.000136
vt 0.937381 0.000136
vt 0.906140 0.520176
vt 0.874898 0.000136
vt 0.874899 0.520176
vt 0.843657 0.000136
vt 0.843657 0.520176
vt 0.812415 0.000136
vt 0.812416 0.520176
vt 0.781173 0.000136
vt 0.781174 0.520176
vt 0.749932 0.000136
vt 0.749933 0.520176
vt 0.718690 0.000136
vt 0.718692 0.520176
vt 0.687449 0.000136
vt 0.687450 0.520176
vt 0.656207 0.000136
vt 0.656209 0.520176
vt 0.624966 0.000136
vt 0.624967 0.520176
vt 0.593724 0.000136
vt 0.593726 0.520177
vt 0.562483 0.000136
vt 0.562484 0.520177
vt 0.531241 0.000136
vt 0.531243 0.520177
vt 0.500000 0.000136
vt 0.500001 0.520177
vt 0.468758 0.000136
vt 0.468760 0.520177
vt 0.437517 0.000136
vt 0.437518 0.520177
vt 0.406275 0.000137
vt 0.406277 0.520177
vt 0.375034 0.000137
vt 0.375035 0.520177
vt 0.343792 0.000137
vt 0.343794 0.520177
vt 0.312551 0.000137
vt 0.312553 0.520177
vt 0.281309 0.000137
vt 0.281311 0.520177
vt 0.250068 0.000137
vt 0.250069 0.520177
vt 0.218826 0.000137
vt 0.218828 0.520178
vt 0.187585 0.000137
vt 0.187587 0.520178
vt 0.156343 0.000137
vt 0.156345 0.520178
vt 0.125102 0.000137
vt 0.125104 0.520178
vt 0.093860 0.000138
vt 0.093862 0.520178
vt 0.062619 0.000138
vt 0.062621 0.520178
vt 0.031377 0.000138
vt 0.031379 0.520178
vt 0.000136 0.000138
vt 0.628712 0.632788
vt 0.616756 0.754175
vt 0.335657 0.603924
vt 0.999864 0.520176
vt 0.968623 0.000136
vt 0.999864 0.000136
vt 0.968623 0.520176
vt 0.233860 0.819599
vt 0.018186 0.754175
vt 0.083611 0.538500
vt 0.000138 0.520178
vt 0.599399 0.780151
vt 0.522469 0.831554
vt 0.577308 0.802242
vt 0.551332 0.819599
vt 0.491828 0.837650
vt 0.460586 0.837650
vt 0.429945 0.831555
vt 0.401082 0.819599
vt 0.375105 0.802243
vt 0.323701 0.725312
vt 0.353014 0.780151
vt 0.335657 0.754175
vt 0.317606 0.694670
vt 0.317606 0.663429
vt 0.323701 0.632788
vt 0.353014 0.577948
vt 0.375105 0.555857
vt 0.401082 0.538500
vt 0.429945 0.526544
vt 0.460586 0.520449
vt 0.491828 0.520450
vt 0.522469 0.526545
vt 0.551333 0.538500
vt 0.577309 0.555857
vt 0.599400 0.577949
vt 0.616757 0.603925
vt 0.634807 0.663429
vt 0.634806 0.694670
vt 0.628711 0.725312
vt 0.112474 0.526545
vt 0.143115 0.520450
vt 0.174356 0.520449
vt 0.204997 0.526544
vt 0.233860 0.538500
vt 0.299285 0.603924
vt 0.259837 0.555856
vt 0.281928 0.577948
vt 0.311240 0.632787
vt 0.317335 0.663428
vt 0.317335 0.694670
vt 0.311240 0.725311
vt 0.299285 0.754175
vt 0.281928 0.780151
vt 0.259837 0.802242
vt 0.204997 0.831555
vt 0.174356 0.837650
vt 0.143114 0.837650
vt 0.112473 0.831555
vt 0.083610 0.819599
vt 0.057634 0.802242
vt 0.035543 0.780151
vt 0.006230 0.725311
vt 0.000136 0.694670
vt 0.000136 0.663429
vt 0.006231 0.632788
vt 0.018186 0.603924
vt 0.035543 0.577948
vt 0.057634 0.555857
vn -0.0980 0.0000 -0.9952
vn 0.0980 0.0000 -0.9952
vn 0.2903 0.0000 -0.9569
vn 0.4714 0.0000 -0.8819
vn 0.6344 0.0000 -0.7730
vn 0.7730 0.0000 -0.6344
vn 0.8819 0.0000 -0.4714
vn 0.9569 0.0000 -0.2903
vn 0.9952 0.0000 -0.0980
vn 0.9952 0.0000 0.0980
vn 0.9569 0.0000 0.2903
vn 0.8819 0.0000 0.4714
vn 0.7730 0.0000 0.6344
vn 0.6344 0.0000 0.7730
vn 0.4714 0.0000 0.8819
vn 0.2903 0.0000 0.9569
vn 0.0980 0.0000 0.9952
vn -0.0980 0.0000 0.9952
vn -0.2903 0.0000 0.9569
vn -0.4714 0.0000 0.8819
vn -0.6344 0.0000 0.7730
vn -0.7730 0.0000 0.6344
vn -0.8819 0.0000 0.4714
vn -0.9569 0.0000 0.2903
vn -0.9952 0.0000 0.0980
vn -0.9952 0.0000 -0.0980
vn -0.9569 0.0000 -0.2903
vn -0.8819 0.0000 -0.4714
vn -0.7730 0.0000 -0.6344
vn -0.6344 0.0000 -0.7730
vn 0.0000 1.0000 0.0000
vn -0.4714 0.0000 -0.8819
vn -0.2903 0.0000 -0.9569
vn 0.0000 -1.0000 0.0000
vn 0.0000 1.0000 0.0001
vn 0.0000 -1.0000 -0.0001
vn 0.0000 -1.0000 0.0001
usemtl Material.005
s off
f 2/1/1 3/2/1 1/3/1
f 4/4/2 5/5/2 3/2/2
f 6/6/3 7/7/3 5/5/3
f 8/8/4 9/9/4 7/7/4
f 10/10/5 11/11/5 9/9/5
f 12/12/6 13/13/6 11/11/6
f 14/14/7 15/15/7 13/13/7
f 16/16/8 17/17/8 15/15/8
f 18/18/9 19/19/9 17/17/9
f 20/20/10 21/21/10 19/19/10
f 22/22/11 23/23/11 21/21/11
f 24/24/12 25/25/12 23/23/12
f 26/26/13 27/27/13 25/25/13
f 28/28/14 29/29/14 27/27/14
f 30/30/15 31/31/15 29/29/15
f 32/32/16 33/33/16 31/31/16
f 34/34/17 35/35/17 33/33/17
f 36/36/18 37/37/18 35/35/18
f 38/38/19 39/39/19 37/37/19
f 40/40/20 41/41/20 39/39/20
f 42/42/21 43/43/21 41/41/21
f 44/44/22 45/45/22 43/43/22
f 46/46/23 47/47/23 45/45/23
f 48/48/24 49/49/24 47/47/24
f 50/50/25 51/51/25 49/49/25
f 52/52/26 53/53/26 51/51/26
f 54/54/27 55/55/27 53/53/27
f 56/56/28 57/57/28 55/55/28
f 58/58/29 59/59/29 57/57/29
f 60/60/30 61/61/30 59/59/30
f 14/62/31 6/63/31 38/64/31
f 62/65/32 63/66/32 61/67/32
f 64/68/33 1/3/33 63/66/33
f 31/69/34 47/70/34 63/71/34
f 2/1/1 4/4/1 3/2/1
f 4/4/2 6/6/2 5/5/2
f 6/6/3 8/8/3 7/7/3
f 8/8/4 10/10/4 9/9/4
f 10/10/5 12/12/5 11/11/5
f 12/12/6 14/14/6 13/13/6
f 14/14/7 16/16/7 15/15/7
f 16/16/8 18/18/8 17/17/8
f 18/18/9 20/20/9 19/19/9
f 20/20/10 22/22/10 21/21/10
f 22/22/11 24/24/11 23/23/11
f 24/24/12 26/26/12 25/25/12
f 26/26/13 28/28/13 27/27/13
f 28/28/14 30/30/14 29/29/14
f 30/30/15 32/32/15 31/31/15
f 32/32/16 34/34/16 33/33/16
f 34/34/17 36/36/17 35/35/17
f 36/36/18 38/38/18 37/37/18
f 38/38/19 40/40/19 39/39/19
f 40/40/20 42/42/20 41/41/20
f 42/42/21 44/44/21 43/43/21
f 44/44/22 46/46/22 45/45/22
f 46/46/23 48/48/23 47/47/23
f 48/48/24 50/50/24 49/49/24
f 50/50/25 52/52/25 51/51/25
f 52/52/26 54/54/26 53/53/26
f 54/54/27 56/56/27 55/55/27
f 56/56/28 58/58/28 57/57/28
f 58/58/29 60/60/29 59/59/29
f 60/60/30 62/72/30 61/61/30
f 6/63/31 4/73/31 62/74/31
f 4/73/31 2/75/31 62/74/31
f 2/75/31 64/76/31 62/74/31
f 62/74/31 60/77/31 58/78/31
f 58/78/31 56/79/31 54/80/31
f 54/80/31 52/81/31 46/82/31
f 52/81/31 50/83/31 46/82/31
f 50/83/31 48/84/31 46/82/31
f 46/82/31 44/85/31 42/86/31
f 42/86/35 40/87/35 46/82/35
f 40/87/31 38/64/31 46/82/31
f 38/64/31 36/88/31 34/89/31
f 34/89/31 32/90/31 30/91/31
f 30/91/35 28/92/35 26/93/35
f 26/93/31 24/94/31 22/95/31
f 22/95/31 20/96/31 18/97/31
f 18/97/31 16/98/31 22/95/31
f 16/98/31 14/62/31 22/95/31
f 14/62/31 12/99/31 10/100/31
f 10/100/31 8/101/31 6/63/31
f 62/74/31 58/78/31 54/80/31
f 38/64/31 34/89/31 22/95/31
f 34/89/31 30/91/31 22/95/31
f 30/91/31 26/93/31 22/95/31
f 14/62/31 10/100/31 6/63/31
f 6/63/31 62/74/31 38/64/31
f 62/74/31 54/80/31 38/64/31
f 54/80/31 46/82/31 38/64/31
f 22/95/31 14/62/31 38/64/31
f 62/65/32 64/68/32 63/66/32
f 64/68/33 2/1/33 1/3/33
f 63/71/34 1/102/34 3/103/34
f 3/103/34 5/104/34 7/105/34
f 7/105/34 9/106/34 15/107/34
f 9/106/34 11/108/34 15/107/34
f 11/108/34 13/109/34 15/107/34
f 15/107/34 17/110/34 19/111/34
f 19/111/34 21/112/34 15/107/34
f 21/112/34 23/113/34 15/107/34
f 23/113/34 25/114/34 31/69/34
f 25/114/34 27/115/34 31/69/34
f 27/115/36 29/116/36 31/69/36
f 31/69/34 33/117/34 35/118/34
f 35/118/34 37/119/34 31/69/34
f 37/119/36 39/120/36 31/69/36
f 39/120/37 41/121/37 43/122/37
f 43/122/36 45/123/36 39/120/36
f 45/123/34 47/70/34 39/120/34
f 47/70/34 49/124/34 51/125/34
f 51/125/34 53/126/34 55/127/34
f 55/127/34 57/128/34 63/71/34
f 57/128/36 59/129/36 63/71/36
f 59/129/34 61/130/34 63/71/34
f 63/71/34 3/103/34 7/105/34
f 47/70/34 51/125/34 63/71/34
f 51/125/34 55/127/34 63/71/34
f 63/71/34 7/105/34 15/107/34
f 15/107/34 23/113/34 63/71/34
f 23/113/34 31/69/34 63/71/34
f 31/69/34 39/120/34 47/70/34
o Cone.001
v 0.000000 12.000000 -0.780000
v 0.000000 13.180000 -0.570000
v 0.152170 12.000000 -0.765012
v 0.111201 13.180000 -0.559048
v 0.298493 12.000000 -0.720626
v 0.218130 13.180000 -0.526611
v 0.433345 12.000000 -0.648546
v 0.316675 13.180000 -0.473938
v 0.551543 12.000000 -0.551543
v 0.403051 13.180000 -0.403051
v 0.648546 12.000000 -0.433345
v 0.473938 13.180000 -0.316675
v 0.720626 12.000000 -0.298493
v 0.526611 13.180000 -0.218130
v 0.765012 12.000000 -0.152170
v 0.559048 13.180000 -0.111202
v 0.780000 12.000000 -0.000000
v 0.570000 13.180000 -0.000000
v 0.765013 12.000000 0.152170
v 0.559048 13.180000 0.111201
v 0.720626 12.000000 0.298493
v 0.526611 13.180000 0.218129
v 0.648546 12.000000 0.433345
v 0.473938 13.180000 0.316675
v 0.551543 12.000000 0.551543
v 0.403051 13.180000 0.403051
v 0.433345 12.000000 0.648546
v 0.316675 13.180000 0.473938
v 0.298493 12.000000 0.720626
v 0.218129 13.180000 0.526611
v 0.152170 12.000000 0.765013
v 0.111201 13.180000 0.559048
v -0.000000 12.000000 0.780000
v -0.000000 13.180000 0.570000
v -0.152171 12.000000 0.765012
v -0.111202 13.180000 0.559048
v -0.298493 12.000000 0.720626
v -0.218130 13.180000 0.526611
v -0.433345 12.000000 0.648546
v -0.316675 13.180000 0.473937
v -0.551544 12.000000 0.551543
v -0.403051 13.180000 0.403051
v -0.648547 12.000000 0.433344
v -0.473938 13.180000 0.316675
v -0.720626 12.000000 0.298492
v -0.526612 13.180000 0.218129
v -0.765013 12.000000 0.152170
v -0.559048 13.180000 0.111201
v -0.780000 12.000000 -0.000001
v -0.570000 13.180000 -0.000001
v -0.765012 12.000000 -0.152171
v -0.559047 13.180000 -0.111202
v -0.720626 12.000000 -0.298494
v -0.526611 13.180000 -0.218130
v -0.648546 12.000000 -0.433346
v -0.473937 13.180000 -0.316676
v -0.551543 12.000000 -0.551544
v -0.403050 13.180000 -0.403051
v -0.433344 12.000000 -0.648547
v -0.316674 13.180000 -0.473938
v -0.298492 12.000000 -0.720626
v -0.218129 13.180000 -0.526612
v -0.152169 12.000000 -0.765013
v -0.111201 13.180000 -0.559048
vt 0.293037 0.045256
vt 0.230670 0.380910
vt 0.255876 0.382837
vt 0.256337 0.041360
vt 0.205656 0.377506
vt 0.238220 0.037796
vt 0.180864 0.372629
vt 0.220286 0.033160
vt 0.156323 0.366285
vt 0.132063 0.358481
vt 0.202558 0.027457
vt 0.108112 0.349226
vt 0.167798 0.012879
vt 0.084498 0.338532
vt 0.061249 0.326411
vt 0.150809 0.004021
vt 0.038392 0.312877
vt 0.605989 0.370010
vt 0.577958 0.627674
vt 0.545867 0.620554
vt 0.629440 0.375213
vt 0.610274 0.633687
vt 0.676808 0.383189
vt 0.642778 0.638588
vt 0.675431 0.642369
vt 0.700670 0.385952
vt 0.708194 0.645027
vt 0.724613 0.387894
vt 0.741029 0.646558
vt 0.748608 0.389013
vt 0.773898 0.646960
vt 0.772627 0.389307
vt 0.806761 0.646234
vt 0.796643 0.388776
vt 0.839580 0.644379
vt 0.820625 0.387421
vt 0.872315 0.641398
vt 0.844548 0.385243
vt 0.904929 0.637295
vt 0.868381 0.382244
vt 0.937383 0.632074
vt 0.892097 0.378429
vt 0.969638 0.625742
vt 0.511923 0.321236
vt 0.461531 0.009507
vt 0.486446 0.333917
vt 0.460860 0.345176
vt 0.442833 0.017734
vt 0.435195 0.355000
vt 0.424078 0.024914
vt 0.409482 0.363378
vt 0.405287 0.031036
vt 0.383750 0.370299
vt 0.386483 0.036094
vt 0.358030 0.375757
vt 0.367688 0.040082
vt 0.332352 0.379743
vt 0.348923 0.042995
vt 0.306747 0.382253
vt 0.649476 0.836044
vt 0.640283 0.929377
vt 0.424150 0.813851
vt 0.311576 0.045583
vt 0.281245 0.383285
vt 0.263613 0.672958
vt 0.332449 0.899883
vt 0.105525 0.968720
vt 0.274616 0.043848
vt 0.185055 0.020694
vt 0.134106 0.994131
vt 0.653055 0.379608
vt 0.915669 0.373801
vt 0.480148 0.000240
vt 0.330212 0.044829
vt 0.626937 0.949350
vt 0.567787 0.988873
vt 0.609952 0.966335
vt 0.589979 0.979681
vt 0.544227 0.993560
vt 0.520206 0.993560
vt 0.496647 0.988874
vt 0.474454 0.979681
vt 0.454481 0.966336
vt 0.414957 0.907184
vt 0.437495 0.949350
vt 0.424150 0.929377
vt 0.410271 0.883625
vt 0.410271 0.859604
vt 0.414957 0.836044
vt 0.437495 0.793878
vt 0.454481 0.776893
vt 0.474454 0.763547
vt 0.496646 0.754355
vt 0.520206 0.749668
vt 0.544227 0.749669
vt 0.567787 0.754355
vt 0.589980 0.763548
vt 0.609953 0.776893
vt 0.626938 0.793879
vt 0.640283 0.813852
vt 0.654162 0.859604
vt 0.654162 0.883625
vt 0.649475 0.907184
vt 0.290944 0.691220
vt 0.314187 0.714464
vt 0.332449 0.741795
vt 0.345029 0.772164
vt 0.351441 0.804403
vt 0.351441 0.837274
vt 0.345028 0.869514
vt 0.314187 0.927214
vt 0.290944 0.950457
vt 0.263613 0.968720
vt 0.233244 0.981299
vt 0.201005 0.987712
vt 0.168134 0.987712
vt 0.135894 0.981299
vt 0.078194 0.950458
vt 0.054950 0.927214
vt 0.036688 0.899883
vt 0.024109 0.869514
vt 0.017696 0.837274
vt 0.017696 0.804403
vt 0.024109 0.772163
vt 0.036688 0.741794
vt 0.054951 0.714462
vt 0.078194 0.691219
vt 0.105526 0.672957
vt 0.135895 0.660378
vt 0.168135 0.653965
vt 0.201005 0.653966
vt 0.233244 0.660379
vn 0.0965 0.1744 -0.9799
vn 0.2858 0.1744 -0.9423
vn 0.4642 0.1744 -0.8684
vn 0.6247 0.1744 -0.7612
vn 0.7612 0.1744 -0.6247
vn 0.8684 0.1744 -0.4642
vn 0.9423 0.1744 -0.2858
vn 0.9799 0.1744 -0.0965
vn 0.9799 0.1744 0.0965
vn 0.9423 0.1744 0.2858
vn 0.8684 0.1744 0.4642
vn 0.7612 0.1744 0.6247
vn 0.6247 0.1744 0.7612
vn 0.4642 0.1744 0.8684
vn 0.2858 0.1744 0.9423
vn 0.0965 0.1744 0.9799
vn -0.0965 0.1744 0.9799
vn -0.2858 0.1744 0.9423
vn -0.4642 0.1744 0.8684
vn -0.6247 0.1744 0.7612
vn -0.7612 0.1744 0.6247
vn -0.8684 0.1744 0.4642
vn -0.9423 0.1744 0.2858
vn -0.9799 0.1744 0.0965
vn -0.9799 0.1744 -0.0965
vn -0.9423 0.1744 -0.2858
vn -0.8684 0.1744 -0.4642
vn -0.7612 0.1744 -0.6247
vn -0.6247 0.1744 -0.7612
vn -0.4642 0.1744 -0.8684
vn 0.0000 1.0000 0.0000
vn -0.2858 0.1744 -0.9423
vn -0.0965 0.1744 -0.9799
vn 0.0000 -1.0000 0.0000
vn 0.0000 1.0000 0.0001
vn 0.0000 1.0000 -0.0001
vn 0.0000 1.0000 -0.0002
vn 0.0000 -1.0000 -0.0001
vn 0.0000 -1.0000 0.0001
usemtl Material.004
s off
f 66/131/38 67/132/38 65/133/38
f 67/132/39 70/134/39 69/135/39
f 69/135/40 72/136/40 71/137/40
f 71/137/41 74/138/41 73/139/41
f 74/138/42 75/140/42 73/139/42
f 76/141/43 77/142/43 75/140/43
f 77/142/44 80/143/44 79/144/44
f 80/143/45 81/145/45 79/144/45
f 82/146/46 83/147/46 81/145/46
f 84/148/47 85/149/47 83/150/47
f 86/151/48 87/152/48 85/149/48
f 87/152/49 90/153/49 89/154/49
f 90/153/50 91/155/50 89/154/50
f 92/156/51 93/157/51 91/155/51
f 94/158/52 95/159/52 93/157/52
f 96/160/53 97/161/53 95/159/53
f 98/162/54 99/163/54 97/161/54
f 100/164/55 101/165/55 99/163/55
f 102/166/56 103/167/56 101/165/56
f 104/168/57 105/169/57 103/167/57
f 106/170/58 107/171/58 105/169/58
f 108/172/59 109/173/59 107/171/59
f 109/174/60 112/175/60 111/176/60
f 112/175/61 113/177/61 111/176/61
f 114/178/62 115/179/62 113/177/62
f 116/180/63 117/181/63 115/179/63
f 118/182/64 119/183/64 117/181/64
f 120/184/65 121/185/65 119/183/65
f 122/186/66 123/187/66 121/185/66
f 124/188/67 125/189/67 123/187/67
f 78/190/68 70/191/68 102/192/68
f 125/189/69 128/193/69 127/194/69
f 128/193/70 65/133/70 127/194/70
f 127/195/71 79/196/71 95/197/71
f 66/131/38 68/198/38 67/132/38
f 67/132/39 68/198/39 70/134/39
f 69/135/40 70/134/40 72/136/40
f 71/137/41 72/136/41 74/138/41
f 74/138/42 76/141/42 75/140/42
f 76/141/43 78/199/43 77/142/43
f 77/142/44 78/199/44 80/143/44
f 80/143/45 82/146/45 81/145/45
f 82/146/46 84/200/46 83/147/46
f 84/148/47 86/151/47 85/149/47
f 86/151/48 88/201/48 87/152/48
f 87/152/49 88/201/49 90/153/49
f 90/153/50 92/156/50 91/155/50
f 92/156/51 94/158/51 93/157/51
f 94/158/52 96/160/52 95/159/52
f 96/160/53 98/162/53 97/161/53
f 98/162/54 100/164/54 99/163/54
f 100/164/55 102/166/55 101/165/55
f 102/166/56 104/168/56 103/167/56
f 104/168/57 106/170/57 105/169/57
f 106/170/58 108/172/58 107/171/58
f 108/172/59 110/202/59 109/173/59
f 109/174/60 110/203/60 112/175/60
f 112/175/61 114/178/61 113/177/61
f 114/178/62 116/180/62 115/179/62
f 116/180/63 118/182/63 117/181/63
f 118/182/64 120/184/64 119/183/64
f 120/184/65 122/186/65 121/185/65
f 122/186/66 124/188/66 123/187/66
f 124/188/67 126/204/67 125/189/67
f 70/191/68 68/205/68 126/206/68
f 68/205/72 66/207/72 126/206/72
f 66/207/73 128/208/73 126/206/73
f 126/206/68 124/209/68 122/210/68
f 122/210/68 120/211/68 118/212/68
f 118/212/68 116/213/68 110/214/68
f 116/213/68 114/215/68 110/214/68
f 114/215/68 112/216/68 110/214/68
f 110/214/68 108/217/68 106/218/68
f 106/218/68 104/219/68 110/214/68
f 104/219/73 102/192/73 110/214/73
f 102/192/72 100/220/72 98/221/72
f 98/221/74 96/222/74 94/223/74
f 94/223/72 92/224/72 90/225/72
f 90/225/68 88/226/68 86/227/68
f 86/227/68 84/228/68 82/229/68
f 82/229/68 80/230/68 86/227/68
f 80/230/68 78/190/68 86/227/68
f 78/190/68 76/231/68 74/232/68
f 74/232/68 72/233/68 70/191/68
f 126/206/68 122/210/68 118/212/68
f 102/192/68 98/221/68 86/227/68
f 98/221/68 94/223/68 86/227/68
f 94/223/68 90/225/68 86/227/68
f 78/190/68 74/232/68 70/191/68
f 70/191/68 126/206/68 102/192/68
f 126/206/68 118/212/68 102/192/68
f 118/212/68 110/214/68 102/192/68
f 86/227/68 78/190/68 102/192/68
f 125/189/69 126/204/69 128/193/69
f 128/193/70 66/131/70 65/133/70
f 127/195/75 65/234/75 67/235/75
f 67/235/76 69/236/76 71/237/76
f 71/237/71 73/238/71 79/196/71
f 73/238/71 75/239/71 79/196/71
f 75/239/71 77/240/71 79/196/71
f 79/196/71 81/241/71 83/242/71
f 83/242/71 85/243/71 87/244/71
f 87/244/71 89/245/71 95/197/71
f 89/245/71 91/246/71 95/197/71
f 91/246/75 93/247/75 95/197/75
f 95/197/71 97/248/71 99/249/71
f 99/249/75 101/250/75 95/197/75
f 101/250/71 103/251/71 95/197/71
f 103/251/71 105/252/71 107/253/71
f 107/253/71 109/254/71 111/255/71
f 111/255/71 113/256/71 115/257/71
f 115/257/71 117/258/71 119/259/71
f 119/259/71 121/260/71 127/195/71
f 121/260/71 123/261/71 127/195/71
f 123/261/75 125/262/75 127/195/75
f 127/195/71 67/235/71 71/237/71
f 79/196/71 83/242/71 95/197/71
f 83/242/71 87/244/71 95/197/71
f 103/251/71 107/253/71 111/255/71
f 111/255/71 115/257/71 127/195/71
f 115/257/71 119/259/71 127/195/71
f 127/195/71 71/237/71 79/196/71
f 95/197/71 103/251/71 127/195/71
f 103/251/71 111/255/71 127/195/71
o Cylinder.001
v -0.298493 8.639999 -0.720626
v -0.298493 12.000000 -0.720626
v -0.152171 8.639999 -0.765012
v -0.152171 12.000000 -0.765012
v -0.000000 8.639999 -0.780000
v -0.000000 12.000000 -0.780000
v 0.152170 8.639999 -0.765013
v 0.152170 12.000000 -0.765013
v 0.298493 8.639999 -0.720626
v 0.298493 12.000000 -0.720626
v 0.433345 8.639999 -0.648546
v 0.433345 12.000000 -0.648546
v 0.551543 8.639999 -0.551543
v 0.551543 12.000000 -0.551543
v 0.648546 8.639999 -0.433345
v 0.648546 12.000000 -0.433345
v 0.720626 8.639999 -0.298493
v 0.720626 12.000000 -0.298493
v 0.765012 8.639999 -0.152171
v 0.765012 12.000000 -0.152171
v 0.780000 8.639999 -0.000000
v 0.780000 12.000000 -0.000000
v 0.765013 8.639999 0.152170
v 0.765013 12.000000 0.152170
v 0.720626 8.639999 0.298493
v 0.720626 12.000000 0.298493
v 0.648546 8.639999 0.433345
v 0.648546 12.000000 0.433345
v 0.551543 8.639999 0.551543
v 0.551543 12.000000 0.551543
v 0.433345 8.639999 0.648546
v 0.433345 12.000000 0.648546
v 0.298493 8.639999 0.720626
v 0.298493 12.000000 0.720626
v 0.152170 8.639999 0.765013
v 0.152170 12.000000 0.765013
v -0.000000 8.639999 0.780000
v -0.000000 12.000000 0.780000
v -0.152171 8.639999 0.765012
v -0.152171 12.000000 0.765012
v -0.298493 8.639999 0.720626
v -0.298493 12.000000 0.720626
v -0.433345 8.639999 0.648546
v -0.433345 12.000000 0.648546
v -0.551544 8.639999 0.551543
v -0.551544 12.000000 0.551543
v -0.648547 8.639999 0.433344
v -0.648547 12.000000 0.433344
v -0.720626 8.639999 0.298493
v -0.720626 12.000000 0.298493
v -0.765013 8.639999 0.152170
v -0.765013 12.000000 0.152170
v -0.780000 8.639999 -0.000001
v -0.780000 12.000000 -0.000001
v -0.765012 8.639999 -0.152171
v -0.765012 12.000000 -0.152171
v -0.720626 8.639999 -0.298494
v -0.720626 12.000000 -0.298494
v -0.648546 8.639999 -0.433345
v -0.648546 12.000000 -0.433345
v -0.551543 8.639999 -0.551544
v -0.551543 12.000000 -0.551544
v -0.433344 8.639999 -0.648547
v -0.433344 12.000000 -0.648547
vt 0.964762 0.683657
vt 0.933658 0.000180
vt 0.964762 0.000180
vt 0.933659 0.683657
vt 0.902554 0.000180
vt 0.902555 0.683657
vt 0.871450 0.000180
vt 0.871451 0.683657
vt 0.840346 0.000180
vt 0.840348 0.683657
vt 0.809242 0.000180
vt 0.809244 0.683657
vt 0.778138 0.000180
vt 0.778140 0.683657
vt 0.747034 0.000180
vt 0.747037 0.683657
vt 0.715930 0.000180
vt 0.715933 0.683657
vt 0.684826 0.000180
vt 0.684829 0.683657
vt 0.653723 0.000181
vt 0.653726 0.683657
vt 0.622619 0.000181
vt 0.622622 0.683657
vt 0.591515 0.000181
vt 0.591518 0.683658
vt 0.560411 0.000181
vt 0.560415 0.683658
vt 0.529307 0.000181
vt 0.529311 0.683658
vt 0.498203 0.000181
vt 0.497839 0.683658
vt 0.466739 0.000181
vt 0.497843 0.000181
vt 0.466735 0.683658
vt 0.435635 0.000181
vt 0.435632 0.683658
vt 0.404531 0.000181
vt 0.404528 0.683658
vt 0.373427 0.000181
vt 0.373424 0.683658
vt 0.342323 0.000181
vt 0.342321 0.683658
vt 0.311219 0.000180
vt 0.311217 0.683658
vt 0.280115 0.000180
vt 0.280113 0.683657
vt 0.249011 0.000180
vt 0.249009 0.683657
vt 0.217908 0.000180
vt 0.217906 0.683657
vt 0.186804 0.000180
vt 0.186802 0.683657
vt 0.155700 0.000180
vt 0.155698 0.683657
vt 0.124596 0.000180
vt 0.124595 0.683657
vt 0.093492 0.000180
vt 0.093491 0.683657
vt 0.062388 0.000180
vt 0.062387 0.683657
vt 0.031284 0.000180
vt 0.428184 0.690086
vt 0.626074 0.795861
vt 0.520299 0.993752
vt 0.031284 0.683657
vt 0.000180 0.000180
vt 0.995866 0.683657
vt 0.995866 0.000180
vt 0.232875 0.701990
vt 0.298010 0.916713
vt 0.083287 0.981849
vt 0.498207 0.683658
vt 0.489793 0.999820
vt 0.399448 0.981849
vt 0.458690 0.999820
vt 0.428184 0.993752
vt 0.373586 0.964569
vt 0.351592 0.942575
vt 0.334311 0.916713
vt 0.322409 0.887977
vt 0.316340 0.857471
vt 0.316340 0.826367
vt 0.322409 0.795861
vt 0.334312 0.767125
vt 0.351592 0.741263
vt 0.373586 0.719269
vt 0.399448 0.701989
vt 0.458690 0.684018
vt 0.489794 0.684018
vt 0.520300 0.690087
vt 0.549036 0.701990
vt 0.574898 0.719270
vt 0.596891 0.741264
vt 0.614171 0.767125
vt 0.632142 0.826368
vt 0.632142 0.857471
vt 0.626074 0.887977
vt 0.614171 0.916713
vt 0.596891 0.942575
vt 0.574897 0.964569
vt 0.549035 0.981849
vt 0.000180 0.683657
vt 0.258736 0.719270
vt 0.280730 0.741264
vt 0.298010 0.767125
vt 0.309913 0.795862
vt 0.315981 0.826368
vt 0.315981 0.857471
vt 0.309913 0.887977
vt 0.280730 0.942575
vt 0.258736 0.964569
vt 0.232875 0.981849
vt 0.204139 0.993752
vt 0.173633 0.999820
vt 0.142529 0.999820
vt 0.112023 0.993752
vt 0.057425 0.964569
vt 0.035431 0.942575
vt 0.018151 0.916714
vt 0.006248 0.887977
vt 0.000180 0.857471
vt 0.000180 0.826367
vt 0.006248 0.795861
vt 0.018151 0.767124
vt 0.035432 0.741262
vt 0.057425 0.719269
vt 0.083287 0.701989
vt 0.112024 0.690086
vt 0.142530 0.684018
vt 0.173633 0.684018
vt 0.204139 0.690086
vn -0.2903 0.0000 -0.9569
vn -0.0980 0.0000 -0.9952
vn 0.0980 0.0000 -0.9952
vn 0.2903 0.0000 -0.9569
vn 0.4714 0.0000 -0.8819
vn 0.6344 0.0000 -0.7730
vn 0.7730 0.0000 -0.6344
vn 0.8819 0.0000 -0.4714
vn 0.9569 0.0000 -0.2903
vn 0.9952 0.0000 -0.0980
vn 0.9952 0.0000 0.0980
vn 0.9569 0.0000 0.2903
vn 0.8819 0.0000 0.4714
vn 0.7730 0.0000 0.6344
vn 0.6344 0.0000 0.7730
vn 0.4714 0.0000 0.8819
vn 0.2903 0.0000 0.9569
vn 0.0980 0.0000 0.9952
vn -0.0980 0.0000 0.9952
vn -0.2903 0.0000 0.9569
vn -0.4714 0.0000 0.8819
vn -0.6344 0.0000 0.7730
vn -0.7730 0.0000 0.6344
vn -0.8819 0.0000 0.4714
vn -0.9569 0.0000 0.2903
vn -0.9952 0.0000 0.0980
vn -0.9952 0.0000 -0.0980
vn -0.9569 0.0000 -0.2903
vn -0.8819 0.0000 -0.4714
vn -0.7730 0.0000 -0.6344
vn 0.0000 1.0000 0.0000
vn -0.6344 0.0000 -0.7730
vn -0.4714 0.0000 -0.8819
vn 0.0000 -1.0000 0.0000
vn 0.0000 1.0000 -0.0001
vn 0.0000 -1.0000 0.0001
vn 0.0000 -1.0000 -0.0001
usemtl Material.002
s off
f 130/263/77 131/264/77 129/265/77
f 132/266/78 133/267/78 131/264/78
f 134/268/79 135/269/79 133/267/79
f 136/270/80 137/271/80 135/269/80
f 138/272/81 139/273/81 137/271/81
f 140/274/82 141/275/82 139/273/82
f 142/276/83 143/277/83 141/275/83
f 144/278/84 145/279/84 143/277/84
f 146/280/85 147/281/85 145/279/85
f 148/282/86 149/283/86 147/281/86
f 150/284/87 151/285/87 149/283/87
f 152/286/88 153/287/88 151/285/88
f 154/288/89 155/289/89 153/287/89
f 156/290/90 157/291/90 155/289/90
f 158/292/91 159/293/91 157/291/91
f 160/294/92 161/295/92 159/296/92
f 162/297/93 163/298/93 161/295/93
f 164/299/94 165/300/94 163/298/94
f 166/301/95 167/302/95 165/300/95
f 168/303/96 169/304/96 167/302/96
f 170/305/97 171/306/97 169/304/97
f 172/307/98 173/308/98 171/306/98
f 174/309/99 175/310/99 173/308/99
f 176/311/100 177/312/100 175/310/100
f 178/313/101 179/314/101 177/312/101
f 180/315/102 181/316/102 179/314/102
f 182/317/103 183/318/103 181/316/103
f 184/319/104 185/320/104 183/318/104
f 186/321/105 187/322/105 185/320/105
f 188/323/106 189/324/106 187/322/106
f 166/325/107 150/326/107 134/327/107
f 190/328/108 191/329/108 189/324/108
f 192/330/109 129/265/109 191/331/109
f 191/332/110 143/333/110 159/334/110
f 130/263/77 132/266/77 131/264/77
f 132/266/78 134/268/78 133/267/78
f 134/268/79 136/270/79 135/269/79
f 136/270/80 138/272/80 137/271/80
f 138/272/81 140/274/81 139/273/81
f 140/274/82 142/276/82 141/275/82
f 142/276/83 144/278/83 143/277/83
f 144/278/84 146/280/84 145/279/84
f 146/280/85 148/282/85 147/281/85
f 148/282/86 150/284/86 149/283/86
f 150/284/87 152/286/87 151/285/87
f 152/286/88 154/288/88 153/287/88
f 154/288/89 156/290/89 155/289/89
f 156/290/90 158/292/90 157/291/90
f 158/292/91 160/335/91 159/293/91
f 160/294/92 162/297/92 161/295/92
f 162/297/93 164/299/93 163/298/93
f 164/299/94 166/301/94 165/300/94
f 166/301/95 168/303/95 167/302/95
f 168/303/96 170/305/96 169/304/96
f 170/305/97 172/307/97 171/306/97
f 172/307/98 174/309/98 173/308/98
f 174/309/99 176/311/99 175/310/99
f 176/311/100 178/313/100 177/312/100
f 178/313/101 180/315/101 179/314/101
f 180/315/102 182/317/102 181/316/102
f 182/317/103 184/319/103 183/318/103
f 184/319/104 186/321/104 185/320/104
f 186/321/105 188/323/105 187/322/105
f 188/323/106 190/328/106 189/324/106
f 134/327/107 132/336/107 190/337/107
f 132/336/107 130/338/107 190/337/107
f 130/338/107 192/339/107 190/337/107
f 190/337/107 188/340/107 186/341/107
f 186/341/107 184/342/107 182/343/107
f 182/343/107 180/344/107 178/345/107
f 178/345/107 176/346/107 174/347/107
f 174/347/107 172/348/107 166/325/107
f 172/348/107 170/349/107 166/325/107
f 170/349/107 168/350/107 166/325/107
f 166/325/107 164/351/107 162/352/107
f 162/352/107 160/353/107 166/325/107
f 160/353/107 158/354/107 166/325/107
f 158/354/107 156/355/107 154/356/107
f 154/356/107 152/357/107 150/326/107
f 150/326/107 148/358/107 146/359/107
f 146/359/107 144/360/107 150/326/107
f 144/360/107 142/361/107 150/326/107
f 142/361/111 140/362/111 138/363/111
f 138/363/107 136/364/107 134/327/107
f 190/337/107 186/341/107 182/343/107
f 182/343/107 178/345/107 166/325/107
f 178/345/107 174/347/107 166/325/107
f 158/354/107 154/356/107 150/326/107
f 142/361/107 138/363/107 150/326/107
f 138/363/107 134/327/107 150/326/107
f 134/327/107 190/337/107 182/343/107
f 166/325/107 158/354/107 150/326/107
f 134/327/107 182/343/107 166/325/107
f 190/328/108 192/365/108 191/329/108
f 192/330/109 130/263/109 129/265/109
f 191/332/112 129/366/112 131/367/112
f 131/367/110 133/368/110 135/369/110
f 135/369/110 137/370/110 143/333/110
f 137/370/110 139/371/110 143/333/110
f 139/371/110 141/372/110 143/333/110
f 143/333/110 145/373/110 147/374/110
f 147/374/110 149/375/110 151/376/110
f 151/376/110 153/377/110 159/334/110
f 153/377/110 155/378/110 159/334/110
f 155/378/112 157/379/112 159/334/112
f 159/334/112 161/380/112 163/381/112
f 163/381/110 165/382/110 159/334/110
f 165/382/110 167/383/110 159/334/110
f 167/383/113 169/384/113 171/385/113
f 171/385/110 173/386/110 175/387/110
f 175/387/110 177/388/110 179/389/110
f 179/389/110 181/390/110 183/391/110
f 183/391/110 185/392/110 191/332/110
f 185/392/110 187/393/110 191/332/110
f 187/393/110 189/394/110 191/332/110
f 191/332/110 131/367/110 135/369/110
f 143/333/110 147/374/110 159/334/110
f 147/374/110 151/376/110 159/334/110
f 167/383/110 171/385/110 175/387/110
f 175/387/110 179/389/110 191/332/110
f 179/389/110 183/391/110 191/332/110
f 191/332/110 135/369/110 143/333/110
f 159/334/110 167/383/110 191/332/110
f 167/383/110 175/387/110 191/332/110
o Cone
v 0.000000 6.840000 -1.020000
v 0.000000 8.639999 -0.780000
v 0.198992 6.840000 -1.000401
v 0.152170 8.639999 -0.765012
v 0.390337 6.840000 -0.942357
v 0.298493 8.639999 -0.720626
v 0.566682 6.840000 -0.848099
v 0.433345 8.639999 -0.648546
v 0.721249 6.840000 -0.721249
v 0.551543 8.639999 -0.551543
v 0.848099 6.840000 -0.566682
v 0.648546 8.639999 -0.433345
v 0.942357 6.840000 -0.390337
v 0.720626 8.639999 -0.298493
v 1.000401 6.840000 -0.198992
v 0.765012 8.639999 -0.152170
v 1.020000 6.840000 -0.000000
v 0.780000 8.639999 -0.000000
v 1.000401 6.840000 0.198992
v 0.765013 8.639999 0.152170
v 0.942357 6.840000 0.390337
v 0.720626 8.639999 0.298493
v 0.848099 6.840000 0.566682
v 0.648546 8.639999 0.433345
v 0.721249 6.840000 0.721249
v 0.551543 8.639999 0.551543
v 0.566682 6.840000 0.848099
v 0.433345 8.639999 0.648546
v 0.390337 6.840000 0.942357
v 0.298493 8.639999 0.720626
v 0.198992 6.840000 1.000401
v 0.152170 8.639999 0.765013
v -0.000000 6.840000 1.020000
v -0.000000 8.639999 0.780000
v -0.198993 6.840000 1.000401
v -0.152171 8.639999 0.765012
v -0.390338 6.840000 0.942357
v -0.298493 8.639999 0.720626
v -0.566682 6.840000 0.848099
v -0.433345 8.639999 0.648546
v -0.721249 6.840000 0.721248
v -0.551544 8.639999 0.551543
v -0.848099 6.840000 0.566681
v -0.648547 8.639999 0.433344
v -0.942357 6.840000 0.390336
v -0.720626 8.639999 0.298492
v -1.000401 6.840000 0.198991
v -0.765013 8.639999 0.152170
v -1.020000 6.840000 -0.000001
v -0.780000 8.639999 -0.000001
v -1.000401 6.840000 -0.198993
v -0.765012 8.639999 -0.152171
v -0.942357 6.840000 -0.390338
v -0.720626 8.639999 -0.298494
v -0.848098 6.840000 -0.566683
v -0.648546 8.639999 -0.433346
v -0.721248 6.840000 -0.721250
v -0.551543 8.639999 -0.551544
v -0.566680 6.840000 -0.848100
v -0.433344 8.639999 -0.648547
v -0.390336 6.840000 -0.942358
v -0.298492 8.639999 -0.720626
v -0.198991 6.840000 -1.000401
v -0.152169 8.639999 -0.765013
vt 0.825736 0.490417
vt 0.774983 0.004255
vt 0.811837 0.001437
vt 0.797553 0.492572
vt 0.741814 0.008346
vt 0.919251 0.997888
vt 0.916458 0.506441
vt 0.949626 0.510532
vt 0.865704 0.992604
vt 0.879603 0.503623
vt 0.840479 0.502187
vt 0.835786 0.991506
vt 0.800588 0.502187
vt 0.805281 0.991506
vt 0.761463 0.503623
vt 0.775362 0.992604
vt 0.724608 0.506441
vt 0.747179 0.994759
vt 0.691440 0.510533
vt 0.656212 1.000000
vt 0.658316 0.508548
vt 0.691440 0.513241
vt 0.630882 0.996411
vt 0.621493 0.505060
vt 0.602723 0.993744
vt 0.582386 0.502912
vt 0.572818 0.992101
vt 0.542498 0.502187
vt 0.542316 0.991547
vt 0.503363 0.502912
vt 0.512389 0.992101
vt 0.466484 0.505060
vt 0.484187 0.993744
vt 0.433278 0.508547
vt 0.458794 0.996411
vt 0.405021 0.513241
vt 0.704421 0.502187
vt 0.719593 0.011054
vt 0.741814 0.016774
vt 0.687428 0.497813
vt 0.691337 0.006361
vt 0.665820 0.494224
vt 0.658130 0.002873
vt 0.640427 0.491557
vt 0.621251 0.000725
vt 0.612225 0.489914
vt 0.582116 0.000000
vt 0.582298 0.489360
vt 0.542228 0.000725
vt 0.551796 0.489914
vt 0.503122 0.002873
vt 0.521891 0.491557
vt 0.466298 0.006361
vt 0.493732 0.494224
vt 0.433174 0.011054
vt 0.468402 0.497813
vt 0.405021 0.016774
vt 0.969625 0.495701
vt 0.966832 0.004255
vt 1.000000 0.008346
vt 0.944261 0.492572
vt 0.929977 0.001437
vt 0.916078 0.490417
vt 0.890853 0.000000
vt 0.081507 0.941668
vt 0.017625 0.657202
vt 0.228215 0.570911
vt 0.886160 0.489319
vt 0.850961 0.000000
vt 0.855655 0.489319
vt 0.261581 0.536591
vt 0.007782 0.353343
vt 0.143441 0.010512
vt 0.772189 0.495701
vt 0.893887 0.994759
vt 0.721815 0.997888
vt 0.437186 1.000000
vt 0.446873 0.502187
vt 0.253579 0.593804
vt 0.303771 0.695272
vt 0.275149 0.622941
vt 0.292097 0.657202
vt 0.309722 0.735686
vt 0.309722 0.776892
vt 0.303771 0.817307
vt 0.292097 0.855376
vt 0.275149 0.889638
vt 0.253579 0.918775
vt 0.228215 0.941668
vt 0.200032 0.957437
vt 0.170113 0.965476
vt 0.139608 0.965476
vt 0.109690 0.957437
vt 0.056143 0.918775
vt 0.034573 0.889638
vt 0.017625 0.855376
vt 0.005951 0.817307
vt 0.000000 0.776892
vt 0.000000 0.735686
vt 0.005951 0.695272
vt 0.034573 0.622941
vt 0.056143 0.593803
vt 0.081507 0.570911
vt 0.109690 0.555142
vt 0.139609 0.547103
vt 0.170114 0.547103
vt 0.200032 0.555142
vt 0.182565 0.000000
vt 0.222456 0.000000
vt 0.261581 0.010512
vt 0.298435 0.031133
vt 0.331603 0.061070
vt 0.397239 0.193759
vt 0.359811 0.099173
vt 0.381973 0.143976
vt 0.405021 0.246609
vt 0.405021 0.300494
vt 0.397239 0.353343
vt 0.381973 0.403127
vt 0.359811 0.447930
vt 0.331603 0.486033
vt 0.298435 0.515970
vt 0.222456 0.547103
vt 0.182565 0.547103
vt 0.143440 0.536590
vt 0.106586 0.515970
vt 0.073417 0.486033
vt 0.045210 0.447930
vt 0.023048 0.403126
vt 0.000000 0.300494
vt 0.000000 0.246609
vt 0.007782 0.193759
vt 0.023048 0.143976
vt 0.045211 0.099172
vt 0.073418 0.061070
vt 0.106586 0.031133
vn 0.0972 0.1315 -0.9865
vn 0.2878 0.1315 -0.9486
vn 0.4673 0.1315 -0.8743
vn 0.6289 0.1315 -0.7663
vn 0.7663 0.1315 -0.6289
vn 0.8743 0.1315 -0.4673
vn 0.9486 0.1315 -0.2878
vn 0.9865 0.1315 -0.0972
vn 0.9865 0.1315 0.0972
vn 0.9486 0.1315 0.2878
vn 0.8743 0.1315 0.4673
vn 0.7663 0.1315 0.6289
vn 0.6289 0.1315 0.7663
vn 0.4673 0.1315 0.8743
vn 0.2878 0.1315 0.9486
vn 0.0972 0.1315 0.9865
vn -0.0972 0.1315 0.9865
vn -0.2878 0.1315 0.9486
vn -0.4673 0.1315 0.8743
vn -0.6289 0.1315 0.7663
vn -0.7663 0.1315 0.6289
vn -0.8743 0.1315 0.4673
vn -0.9486 0.1315 0.2878
vn -0.9865 0.1315 0.0972
vn -0.9865 0.1315 -0.0972
vn -0.9486 0.1315 -0.2878
vn -0.8743 0.1315 -0.4673
vn -0.7663 0.1315 -0.6289
vn -0.6289 0.1315 -0.7663
vn -0.4673 0.1315 -0.8743
vn 0.0000 1.0000 -0.0000
vn -0.2878 0.1315 -0.9486
vn -0.0972 0.1315 -0.9865
vn 0.0000 -1.0000 0.0000
vn 0.0000 1.0000 -0.0001
vn 0.0000 -1.0000 -0.0001
vn 0.0000 -1.0000 0.0001
usemtl Material.001
s off
f 194/395/114 195/396/114 193/397/114
f 196/398/115 197/399/115 195/396/115
f 198/400/116 199/401/116 197/402/116
f 199/401/117 202/403/117 201/404/117
f 202/403/118 203/405/118 201/404/118
f 204/406/119 205/407/119 203/405/119
f 206/408/120 207/409/120 205/407/120
f 208/410/121 209/411/121 207/409/121
f 210/412/122 211/413/122 209/411/122
f 212/414/123 213/415/123 211/416/123
f 214/417/124 215/418/124 213/415/124
f 216/419/125 217/420/125 215/418/125
f 218/421/126 219/422/126 217/420/126
f 220/423/127 221/424/127 219/422/127
f 222/425/128 223/426/128 221/424/128
f 224/427/129 225/428/129 223/426/129
f 226/429/130 227/430/130 225/428/130
f 228/431/131 229/432/131 227/433/131
f 230/434/132 231/435/132 229/432/132
f 232/436/133 233/437/133 231/435/133
f 234/438/134 235/439/134 233/437/134
f 236/440/135 237/441/135 235/439/135
f 238/442/136 239/443/136 237/441/136
f 240/444/137 241/445/137 239/443/137
f 242/446/138 243/447/138 241/445/138
f 244/448/139 245/449/139 243/447/139
f 246/450/140 247/451/140 245/449/140
f 248/452/141 249/453/141 247/454/141
f 250/455/142 251/456/142 249/453/142
f 252/457/143 253/458/143 251/456/143
f 230/459/144 214/460/144 198/461/144
f 254/462/145 255/463/145 253/458/145
f 256/464/146 193/397/146 255/463/146
f 223/465/147 239/466/147 255/467/147
f 194/395/114 196/398/114 195/396/114
f 196/398/115 198/468/115 197/399/115
f 198/400/116 200/469/116 199/401/116
f 199/401/117 200/469/117 202/403/117
f 202/403/118 204/406/118 203/405/118
f 204/406/119 206/408/119 205/407/119
f 206/408/120 208/410/120 207/409/120
f 208/410/121 210/412/121 209/411/121
f 210/412/122 212/470/122 211/413/122
f 212/414/123 214/417/123 213/415/123
f 214/417/124 216/419/124 215/418/124
f 216/419/125 218/421/125 217/420/125
f 218/421/126 220/423/126 219/422/126
f 220/423/127 222/425/127 221/424/127
f 222/425/128 224/427/128 223/426/128
f 224/427/129 226/429/129 225/428/129
f 226/429/130 228/471/130 227/430/130
f 228/431/131 230/434/131 229/432/131
f 230/434/132 232/436/132 231/435/132
f 232/436/133 234/438/133 233/437/133
f 234/438/134 236/440/134 235/439/134
f 236/440/135 238/442/135 237/441/135
f 238/442/136 240/444/136 239/443/136
f 240/444/137 242/446/137 241/445/137
f 242/446/138 244/448/138 243/447/138
f 244/448/139 246/450/139 245/449/139
f 246/450/140 248/472/140 247/451/140
f 248/452/141 250/455/141 249/453/141
f 250/455/142 252/457/142 251/456/142
f 252/457/143 254/462/143 253/458/143
f 198/461/144 196/473/144 254/474/144
f 196/473/144 194/475/144 254/474/144
f 194/475/148 256/476/148 254/474/148
f 254/474/144 252/477/144 250/478/144
f 250/478/144 248/479/144 246/480/144
f 246/480/144 244/481/144 242/482/144
f 242/482/144 240/483/144 238/484/144
f 238/484/144 236/485/144 230/459/144
f 236/485/144 234/486/144 230/459/144
f 234/486/144 232/487/144 230/459/144
f 230/459/144 228/488/144 226/489/144
f 226/489/144 224/490/144 230/459/144
f 224/490/144 222/491/144 230/459/144
f 222/491/144 220/492/144 218/493/144
f 218/493/144 216/494/144 214/460/144
f 214/460/144 212/495/144 210/496/144
f 210/496/144 208/497/144 214/460/144
f 208/497/144 206/498/144 214/460/144
f 206/498/144 204/499/144 202/500/144
f 202/500/144 200/501/144 198/461/144
f 254/474/144 250/478/144 246/480/144
f 246/480/144 242/482/144 230/459/144
f 242/482/144 238/484/144 230/459/144
f 222/491/144 218/493/144 214/460/144
f 206/498/144 202/500/144 214/460/144
f 202/500/144 198/461/144 214/460/144
f 198/461/144 254/474/144 246/480/144
f 230/459/144 222/491/144 214/460/144
f 198/461/144 246/480/144 230/459/144
f 254/462/145 256/464/145 255/463/145
f 256/464/146 194/395/146 193/397/146
f 255/467/149 193/502/149 195/503/149
f 195/503/147 197/504/147 199/505/147
f 199/505/147 201/506/147 207/507/147
f 201/506/147 203/508/147 207/507/147
f 203/508/147 205/509/147 207/507/147
f 207/507/147 209/510/147 211/511/147
f 211/511/147 213/512/147 207/507/147
f 213/512/147 215/513/147 207/507/147
f 215/513/147 217/514/147 223/465/147
f 217/514/147 219/515/147 223/465/147
f 219/515/147 221/516/147 223/465/147
f 223/465/147 225/517/147 227/518/147
f 227/518/147 229/519/147 223/465/147
f 229/519/147 231/520/147 223/465/147
f 231/520/147 233/521/147 235/522/147
f 235/522/147 237/523/147 231/520/147
f 237/523/147 239/466/147 231/520/147
f 239/466/147 241/524/147 243/525/147
f 243/525/147 245/526/147 239/466/147
f 245/526/147 247/527/147 239/466/147
f 247/527/147 249/528/147 255/467/147
f 249/528/147 251/529/147 255/467/147
f 251/529/150 253/530/150 255/467/150
f 255/467/147 195/503/147 207/507/147
f 195/503/147 199/505/147 207/507/147
f 207/507/147 215/513/147 223/465/147
f 223/465/147 231/520/147 239/466/147
f 239/466/147 247/527/147 255/467/147
f 255/467/147 207/507/147 223/465/147
o Cylinder
v 0.000000 0.000000 -1.020000
v 0.000000 6.840000 -1.020000
v 0.198992 0.000000 -1.000401
v 0.198992 6.840000 -1.000401
v 0.390337 0.000000 -0.942357
v 0.390337 6.840000 -0.942357
v 0.566682 0.000000 -0.848099
v 0.566682 6.840000 -0.848099
v 0.721249 0.000000 -0.721249
v 0.721249 6.840000 -0.721249
v 0.848099 0.000000 -0.566682
v 0.848099 6.840000 -0.566682
v 0.942357 0.000000 -0.390337
v 0.942357 6.840000 -0.390337
v 1.000401 0.000000 -0.198992
v 1.000401 6.840000 -0.198992
v 1.020000 0.000000 -0.000000
v 1.020000 6.840000 -0.000000
v 1.000401 0.000000 0.198992
v 1.000401 6.840000 0.198992
v 0.942357 0.000000 0.390337
v 0.942357 6.840000 0.390337
v 0.848099 0.000000 0.566682
v 0.848099 6.840000 0.566682
v 0.721249 0.000000 0.721249
v 0.721249 6.840000 0.721249
v 0.566682 0.000000 0.848099
v 0.566682 6.840000 0.848099
v 0.390337 0.000000 0.942357
v 0.390337 6.840000 0.942357
v 0.198992 0.000000 1.000401
v 0.198992 6.840000 1.000401
v -0.000000 0.000000 1.020000
v -0.000000 6.840000 1.020000
v -0.198993 0.000000 1.000401
v -0.198993 6.840000 1.000401
v -0.390338 0.000000 0.942357
v -0.390338 6.840000 0.942357
v -0.566682 0.000000 0.848099
v -0.566682 6.840000 0.848099
v -0.721249 0.000000 0.721248
v -0.721249 6.840000 0.721248
v -0.848099 0.000000 0.566681
v -0.848099 6.840000 0.566681
v -0.942357 0.000000 0.390336
v -0.942357 6.840000 0.390336
v -1.000401 0.000000 0.198991
v -1.000401 6.840000 0.198991
v -1.020000 0.000000 -0.000001
v -1.020000 6.840000 -0.000001
v -1.000401 0.000000 -0.198993
v -1.000401 6.840000 -0.198993
v -0.942357 0.000000 -0.390338
v -0.942357 6.840000 -0.390338
v -0.848098 0.000000 -0.566683
v -0.848098 6.840000 -0.566683
v -0.721248 0.000000 -0.721250
v -0.721248 6.840000 -0.721250
v -0.566680 0.000000 -0.848100
v -0.566680 6.840000 -0.848100
v -0.390336 0.000000 -0.942358
v -0.390336 6.840000 -0.942358
v -0.198991 0.000000 -1.000401
v -0.198991 6.840000 -1.000401
vt 0.735168 0.811225
vt 0.711453 0.000127
vt 0.735164 0.000127
vt 0.711457 0.811225
vt 0.687743 0.000127
vt 0.687746 0.811226
vt 0.664032 0.000127
vt 0.664035 0.811226
vt 0.640321 0.000127
vt 0.640324 0.811226
vt 0.616610 0.000127
vt 0.616613 0.811226
vt 0.592900 0.000127
vt 0.592902 0.811226
vt 0.569189 0.000127
vt 0.569191 0.811226
vt 0.545478 0.000127
vt 0.545480 0.811226
vt 0.521767 0.000127
vt 0.521769 0.811226
vt 0.498057 0.000127
vt 0.498058 0.811226
vt 0.474346 0.000127
vt 0.474347 0.811226
vt 0.450635 0.000127
vt 0.450636 0.811226
vt 0.426924 0.000127
vt 0.426925 0.811226
vt 0.403214 0.000128
vt 0.403214 0.811226
vt 0.379503 0.000128
vt 0.379503 0.811226
vt 0.355792 0.000127
vt 0.355792 0.811226
vt 0.332081 0.000127
vt 0.332081 0.811226
vt 0.308370 0.000127
vt 0.308370 0.811226
vt 0.284660 0.000127
vt 0.284659 0.811226
vt 0.260949 0.000127
vt 0.260948 0.811226
vt 0.237238 0.000127
vt 0.237237 0.811226
vt 0.213527 0.000127
vt 0.213526 0.811226
vt 0.189817 0.000127
vt 0.189815 0.811226
vt 0.166106 0.000127
vt 0.166104 0.811226
vt 0.142395 0.000127
vt 0.142393 0.811226
vt 0.118684 0.000127
vt 0.118682 0.811226
vt 0.094973 0.000127
vt 0.094971 0.811226
vt 0.071263 0.000127
vt 0.071260 0.811226
vt 0.047552 0.000127
vt 0.047549 0.811226
vt 0.023841 0.000127
vt 0.802771 0.026999
vt 0.973001 0.043766
vt 0.956234 0.213995
vt 0.023838 0.811226
vt 0.000130 0.000127
vt 0.758879 0.811225
vt 0.758875 0.000127
vt 0.968079 0.948835
vt 0.797849 0.965601
vt 0.781083 0.795372
vt 0.936519 0.227168
vt 0.867646 0.240868
vt 0.914613 0.236242
vt 0.891358 0.240868
vt 0.844391 0.236242
vt 0.822485 0.227168
vt 0.802770 0.213994
vt 0.786004 0.197228
vt 0.772831 0.177513
vt 0.763757 0.155607
vt 0.759132 0.132352
vt 0.759132 0.108641
vt 0.763758 0.085386
vt 0.772832 0.063480
vt 0.786005 0.043765
vt 0.822486 0.013826
vt 0.844392 0.004752
vt 0.867648 0.000127
vt 0.891359 0.000127
vt 0.914614 0.004752
vt 0.936520 0.013826
vt 0.956235 0.026999
vt 0.986174 0.063480
vt 0.995248 0.085387
vt 0.999873 0.108642
vt 0.999873 0.132352
vt 0.995248 0.155608
vt 0.986174 0.177514
vt 0.973001 0.197229
vt 0.000127 0.811225
vt 0.797849 0.778606
vt 0.817564 0.765433
vt 0.839470 0.756359
vt 0.862726 0.751733
vt 0.886437 0.751733
vt 0.951313 0.778606
vt 0.909692 0.756359
vt 0.931598 0.765433
vt 0.968079 0.795372
vt 0.981252 0.815087
vt 0.990326 0.836993
vt 0.994952 0.860249
vt 0.994952 0.883959
vt 0.990326 0.907215
vt 0.981252 0.929120
vt 0.951313 0.965602
vt 0.931598 0.978775
vt 0.909692 0.987849
vt 0.886436 0.992474
vt 0.862725 0.992474
vt 0.839470 0.987848
vt 0.817564 0.978775
vt 0.781083 0.948835
vt 0.767910 0.929120
vt 0.758836 0.907214
vt 0.754210 0.883959
vt 0.754210 0.860248
vt 0.758836 0.836993
vt 0.767910 0.815087
vn 0.0980 0.0000 -0.9952
vn 0.2903 0.0000 -0.9569
vn 0.4714 0.0000 -0.8819
vn 0.6344 0.0000 -0.7730
vn 0.7730 0.0000 -0.6344
vn 0.8819 0.0000 -0.4714
vn 0.9569 0.0000 -0.2903
vn 0.9952 0.0000 -0.0980
vn 0.9952 0.0000 0.0980
vn 0.9569 0.0000 0.2903
vn 0.8819 0.0000 0.4714
vn 0.7730 0.0000 0.6344
vn 0.6344 0.0000 0.7730
vn 0.4714 0.0000 0.8819
vn 0.2903 0.0000 0.9569
vn 0.0980 0.0000 0.9952
vn -0.0980 0.0000 0.9952
vn -0.2903 0.0000 0.9569
vn -0.4714 0.0000 0.8819
vn -0.6344 0.0000 0.7730
vn -0.7730 0.0000 0.6344
vn -0.8819 0.0000 0.4714
vn -0.9569 0.0000 0.2903
vn -0.9952 0.0000 0.0980
vn -0.9952 0.0000 -0.0980
vn -0.9569 0.0000 -0.2903
vn -0.8819 0.0000 -0.4714
vn -0.7730 0.0000 -0.6344
vn -0.6344 0.0000 -0.7730
vn -0.4714 0.0000 -0.8819
vn 0.0000 1.0000 0.0000
vn -0.2903 0.0000 -0.9569
vn -0.0980 0.0000 -0.9952
vn 0.0000 -1.0000 0.0000
usemtl Material.003
s off
f 258/531/151 259/532/151 257/533/151
f 260/534/152 261/535/152 259/532/152
f 262/536/153 263/537/153 261/535/153
f 264/538/154 265/539/154 263/537/154
f 266/540/155 267/541/155 265/539/155
f 268/542/156 269/543/156 267/541/156
f 270/544/157 271/545/157 269/543/157
f 272/546/158 273/547/158 271/545/158
f 274/548/159 275/549/159 273/547/159
f 276/550/160 277/551/160 275/549/160
f 278/552/161 279/553/161 277/551/161
f 280/554/162 281/555/162 279/553/162
f 282/556/163 283/557/163 281/555/163
f 284/558/164 285/559/164 283/557/164
f 286/560/165 287/561/165 285/559/165
f 288/562/166 289/563/166 287/561/166
f 290/564/167 291/565/167 289/563/167
f 292/566/168 293/567/168 291/565/168
f 294/568/169 295/569/169 293/567/169
f 296/570/170 297/571/170 295/569/170
f 298/572/171 299/573/171 297/571/171
f 300/574/172 301/575/172 299/573/172
f 302/576/173 303/577/173 301/575/173
f 304/578/174 305/579/174 303/577/174
f 306/580/175 307/581/175 305/579/175
f 308/582/176 309/583/176 307/581/176
f 310/584/177 311/585/177 309/583/177
f 312/586/178 313/587/178 311/585/178
f 314/588/179 315/589/179 313/587/179
f 316/590/180 317/591/180 315/589/180
f 294/592/181 278/593/181 262/594/181
f 318/595/182 319/596/182 317/591/182
f 320/597/183 257/533/183 319/598/183
f 287/599/184 303/600/184 319/601/184
f 258/531/151 260/534/151 259/532/151
f 260/534/152 262/536/152 261/535/152
f 262/536/153 264/538/153 263/537/153
f 264/538/154 266/540/154 265/539/154
f 266/540/155 268/542/155 267/541/155
f 268/542/156 270/544/156 269/543/156
f 270/544/157 272/546/157 271/545/157
f 272/546/158 274/548/158 273/547/158
f 274/548/159 276/550/159 275/549/159
f 276/550/160 278/552/160 277/551/160
f 278/552/161 280/554/161 279/553/161
f 280/554/162 282/556/162 281/555/162
f 282/556/163 284/558/163 283/557/163
f 284/558/164 286/560/164 285/559/164
f 286/560/165 288/562/165 287/561/165
f 288/562/166 290/564/166 289/563/166
f 290/564/167 292/566/167 291/565/167
f 292/566/168 294/568/168 293/567/168
f 294/568/169 296/570/169 295/569/169
f 296/570/170 298/572/170 297/571/170
f 298/572/171 300/574/171 299/573/171
f 300/574/172 302/576/172 301/575/172
f 302/576/173 304/578/173 303/577/173
f 304/578/174 306/580/174 305/579/174
f 306/580/175 308/582/175 307/581/175
f 308/582/176 310/584/176 309/583/176
f 310/584/177 312/586/177 311/585/177
f 312/586/178 314/588/178 313/587/178
f 314/588/179 316/590/179 315/589/179
f 316/590/180 318/595/180 317/591/180
f 262/594/181 260/602/181 318/603/181
f 260/602/181 258/604/181 318/603/181
f 258/604/181 320/605/181 318/603/181
f 318/603/181 316/606/181 314/607/181
f 314/607/181 312/608/181 310/609/181
f 310/609/181 308/610/181 306/611/181
f 306/611/181 304/612/181 302/613/181
f 302/613/181 300/614/181 298/615/181
f 298/615/181 296/616/181 294/592/181
f 294/592/181 292/617/181 290/618/181
f 290/618/181 288/619/181 294/592/181
f 288/619/181 286/620/181 294/592/181
f 286/620/181 284/621/181 282/622/181
f 282/622/181 280/623/181 278/593/181
f 278/593/181 276/624/181 274/625/181
f 274/625/181 272/626/181 278/593/181
f 272/626/181 270/627/181 278/593/181
f 270/627/181 268/628/181 266/629/181
f 266/629/181 264/630/181 262/594/181
f 318/603/181 314/607/181 262/594/181
f 314/607/181 310/609/181 262/594/181
f 310/609/181 306/611/181 302/613/181
f 302/613/181 298/615/181 294/592/181
f 286/620/181 282/622/181 278/593/181
f 270/627/181 266/629/181 262/594/181
f 310/609/181 302/613/181 294/592/181
f 294/592/181 286/620/181 278/593/181
f 278/593/181 270/627/181 262/594/181
f 262/594/181 310/609/181 294/592/181
f 318/595/182 320/631/182 319/596/182
f 320/597/183 258/531/183 257/533/183
f 319/601/184 257/632/184 259/633/184
f 259/633/184 261/634/184 263/635/184
f 263/635/184 265/636/184 271/637/184
f 265/636/184 267/638/184 271/637/184
f 267/638/184 269/639/184 271/637/184
f 271/637/184 273/640/184 275/641/184
f 275/641/184 277/642/184 271/637/184
f 277/642/184 279/643/184 271/637/184
f 279/643/184 281/644/184 287/599/184
f 281/644/184 283/645/184 287/599/184
f 283/645/184 285/646/184 287/599/184
f 287/599/184 289/647/184 291/648/184
f 291/648/184 293/649/184 287/599/184
f 293/649/184 295/650/184 287/599/184
f 295/650/184 297/651/184 299/652/184
f 299/652/184 301/653/184 295/650/184
f 301/653/184 303/600/184 295/650/184
f 303/600/184 305/654/184 307/655/184
f 307/655/184 309/656/184 303/600/184
f 309/656/184 311/657/184 303/600/184
f 311/657/184 313/658/184 319/601/184
f 313/658/184 315/659/184 319/601/184
f 315/659/184 317/660/184 319/601/184
f 319/601/184 259/633/184 271/637/184
f 259/633/184 263/635/184 271/637/184
f 271/637/184 279/643/184 287/599/184
f 287/599/184 295/650/184 303/600/184
f 303/600/184 311/657/184 319/601/184
f 319/601/184 271/637/184 287/599/184
